[
 {
   "Code": "64-16-6.1",
   "Section": "Design, Construction",
   "Description": "Pools required to comply with NSPI-1, NSPI-2, APSP-7",
   "Closure": "No",
   "FullText": "6.1. A recreational water facility that is designed, constructed, or renovated after the effective date of this rule shall comply with the National Spa and Pool Institute ANSI/NSPI-1 2003 Standard for Public Swimming Pools, ANSI/NSPI-2 1999 Standard for Public Spas, ANSI/IAF-9 2005 Standard for Public Water Parks and ANSI/APSP-7 2006 National Standard for Suction Entrapment Avoidance in Swimming Pools, Wading Pools, Spa, Hot Tubs, and Catch Basins. These standards are available through the internet at: http://www.nspi.org/home.",
   "Notes": "Some common violations that are cited in NSPI-1 or APSP-7 include:<br><br>Depth Markers (with Ft or M notation) and No Diving Signs (every 25 ft where the depth of the pool is 5ft or less) on the pool deck.<br><br>No gaps greater than 4in under or around the fence or gate.<br><br>Gate not self-closing and self-latching.<br><br>Fence or gate height are a minimum of 4ft above grade.<br><br>Backwash from the filter is discharged into approved sewage system and is not directly connected (air gap).<br><br>Vacuum gage on pump inlet and pressure gage on pump outlet.<br><br>Suction outlets such as skimmer equalizers and dedicated vacuum ports must have covers that meet ANSI/APSP 16 - 2011."
 },
 {
   "Code": "64-16-7.1.a",
   "Section": "Water Quality - Disinfection",
   "Description": "Continuous disinfection required",
   "Closure": "Yes",
   "FullText": "7.1.a. A recreational water facility, with the exception of bathing beaches, shall be disinfected continuously by the use of chemical feed equipment.",
   "Notes": "A Recreational Water Facility without a working chlorinator must be closed."
 },
 {
   "Code": "64-16-7.1.b",
   "Section": "Water Quality - Disinfection",
   "Description": "No hand feeding unless shocking",
   "Closure": "Potential",
   "FullText": "7.1.b. A recreational water facility may not use hand batch feeding of disinfecting chemicals except when performing super-chlorination or shocking.",
   "Notes": "If the operator is hand feeding due to lack of a chlorinator, the facility should be closed."
 },
 {
   "Code": "64-16-7.1.c.1",
   "Section": "Water Quality - Disinfection",
   "Description": "Disinfecting materials - approved",
   "Closure": "Yes",
   "FullText": "7.1.c. Disinfecting materials and methods shall:<br><br>7.1.c.1. Be used only with the approval of the Commissioner.",
   "Notes": ""
 },
 {
   "Code": "64-16-7.1.c.2",
   "Section": "Water Quality - Disinfection",
   "Description": "Disinfecting materials - do not create a hazard",
   "Closure": "Yes",
   "FullText": "7.1.c. Disinfecting materials and methods shall:<br><br>7.1.c.2. Not create an undue safety hazard;",
   "Notes": "Approved disinfecting materials shouldn't create a hazard under normal conditions."
 },
 {
   "Code": "64-16-7.1.c.3",
   "Section": "Water Quality - Disinfection",
   "Description": "Disinfecting materials - properly handled, stored, used",
   "Closure": "Potential",
   "FullText": "7.1.c. Disinfecting materials and methods shall:<br><br>7.1.c.3. Be handled, stored, and used according to directions;",
   "Notes": "If the way they are being used and stored creates a hazard for the operator, we should educate but it is not necessarly a closure.  If the way they are being stored and handled creates a hazard for bathers, then it is a closure."
 },
 {
   "Code": "64-16-7.1.c.4",
   "Section": "Water Quality - Disinfection",
   "Description": "Disinfecting materials - compatible with other chemicals",
   "Closure": "Yes",
   "FullText": "7.1.c. Disinfecting materials and methods shall:<br><br>7.1.c.4. Be compatible for use with other chemicals commonly used in pool water treatment, or be clearly identified as having a use limitation;",
   "Notes": "Be sure to cite any closure conditions (cloudy pool, fire, explosion, etc.) that result from mixing incompatible chemicals under their respective codes."
 },
 {
   "Code": "64-16-7.1.c.5",
   "Section": "Water Quality - Disinfection",
   "Description": "Disinfecting materials - not impart toxic properties",
   "Closure": "Yes",
   "FullText": "7.1.c. Disinfecting materials and methods shall:<br><br>7.1.c.5. Not impart toxic properties to the water when used according to directions; and",
   "Notes": "Approved disinfecting materials shouldn't impart toxic properties to water under normal conditions."
 },
 {
   "Code": "64-16-7.1.c.6",
   "Section": "Water Quality - Disinfection",
   "Description": "Disinfecting materials - provide residual",
   "Closure": "Yes",
   "FullText": "7.1.c. Disinfecting materials and methods shall:<br><br>7.1.c.6. Provide an effective residual which can be easily and accurately measured by a field test procedure.",
   "Notes": "Be sure to cite lack of disinfecant residual under 7.1.d or 7.1.e."
 },
 {
   "Code": "64-16-7.1.d",
   "Section": "Water Quality - Disinfection",
   "Description": "Required chlorine residual",
   "Closure": "Yes",
   "FullText": "7.1.d. When chlorine is used as the disinfectant, the recreational water facility shall maintain a free chlorine residual of at least one (1) milligram per liter (mg/l) to a maximum of five (5) milligrams per liter (mg/l) throughout.",
   "Notes": "Salt water generating chlorinators ('salt water pools') must generate a chlorine residual that meets the requiremets of 7.1.d."
 },
 {
   "Code": "64-16-7.1.e",
   "Section": "Water Quality - Disinfection",
   "Description": "Required bromine residual",
   "Closure": "Yes",
   "FullText": "7.1.e. When bromine is used as the disinfectant, the recreational water facility shall maintain a residual of at least two (2) milligrams per liter (mg/l) to a maximum of five (5) milligrams per liter (mg/l) throughout.",
   "Notes": ""
 },
 {
   "Code": "64-16-7.1.f.1",
   "Section": "Water Quality - Disinfection",
   "Description": "Disinfecting Materials - other than chlorine - approved",
   "Closure": "Yes",
   "FullText": "7.1.f. Disinfecting materials or methods other than chlorine and bromine:<br><br>7.1.f.1. Shall be approved by the Commissioner prior to being used;",
   "Notes": ""
 },
 {
   "Code": "64-16-7.1.f.1",
   "Section": "Water Quality - Disinfection",
   "Description": "Disinfecting Materials - other than chlorine - registered",
   "Closure": "Yes",
   "FullText": "7.1.f. Disinfecting materials or methods other than chlorine and bromine:<br><br>7.1.f.2. Shall be registered as a bactericidal agent by the U.S. Environmental Protection Agency; and",
   "Notes": ""
 },
 {
   "Code": "64-16-7.1.f.1",
   "Section": "Water Quality - Disinfection",
   "Description": "Disinfecting Materials - other than chlorine - effective",
   "Closure": "Yes",
   "FullText": "7.1.f. Disinfecting materials or methods other than chlorine and bromine:<br><br>7.1.f.3. May be used if they provide a satisfactory residual which is easily measured and is as effective under conditions of use as the chlorine concentrations required in this rule.",
   "Notes": ""
 },
 {
   "Code": "64-16-7.1.g",
   "Section": "Water Quality - Disinfection",
   "Description": "Cyanuric Acid",
   "Closure": "No",
   "FullText": "7.1.g. When cyanuric acid is used as a stabilizer, it must be maintained at a level between ten (10) and one hundred (100) milligrams per liter (mg/l).",
   "Notes": ""
 },
 {
   "Code": "64-16-7.2.a",
   "Section": "Chemical Requirements",
   "Description": "Chemical Limits conform to 64SCRS3",
   "Closure": "Yes",
   "FullText": "7.2.a. The water in a recreational water facility, except for bathing beaches, shall conform to the chemical limits specified in Division of Health rule, “Public Water Systems,” 64CSR3.",
   "Notes": ""
 },
 {
   "Code": "64-16-7.2.b",
   "Section": "Chemical Requirements",
   "Description": "Bathing Beach chemical limits conform to 46CSR1",
   "Closure": "Yes",
   "FullText": "7.2.b. Bathing beach water shall conform to the standards prescribed for Category A in Appendix E of the Environmental Quality Board’s rule, “Requirements Governing Water Quality Standards,” 46CSR1.",
   "Notes": ""
 },
 {
   "Code": "64-16-7.3.e.1",
   "Section": "Bacteriological Requirements",
   "Description": "Positive Coliform requirement - superchlorination",
   "Closure": "Potential",
   "FullText": "7.3.e. If laboratory results of a water sample from a recreational water facility, except for bathing beaches, indicate the presence of coliform organisms:<br><br>7.3.e.1. The operator shall super-chlorinate the recreational water facility, and the water shall be retested immediately; and",
   "Notes": "If the follow-up water test is also positive for colifoms, at that point the recreational water facility shall be closed until a negative water sample is obtained."
 },
 {
   "Code": "64-16-7.3.e.2",
   "Section": "Bacteriological Requirements",
   "Description": "Positive Coliform requirement - investigate cause",
   "Closure": "Potential",
   "FullText": "7.3.e. If laboratory results of a water sample from a recreational water facility, except for bathing beaches, indicate the presence of coliform organisms:<br><br>7.3.e.2. The operator shall investigate the cause of the unsatisfactory sample and initiate, or cause to be initiated, corrective action.",
   "Notes": "If the follow-up water test is also positive for colifoms, at that point the recreational water facility shall be closed until a negative water sample is obtained."
 },
 {
   "Code": "64-16-7.3.f.1",
   "Section": "Bacteriological Requirements",
   "Description": "Bathing Beach - e-coli exceeds 235 - cease operation",
   "Closure": "Potential",
   "FullText": "7.3.f. If laboratory results of a water sample from a bathing beach indicate that e. coli exceeds two hundred thirty-five (235) per one hundred (100) milliliters in any single sample:<br><br>",
   "Notes": "If the facility voluntarily closes then you don’t have to issue a closure order."
 },
 {
   "Code": "64-16-7.3.f.2",
   "Section": "Bacteriological Requirements",
   "Description": "Bathing Beach  - e-coli exceeds 235 - investigate cause",
   "Closure": "Potential",
   "FullText": "7.3.f. If laboratory results of a water sample from a bathing beach indicate that e. coli exceeds two hundred thirty-five (235) per one hundred (100) milliliters in any single sample:<br><br>",
   "Notes": "If the facility voluntarily closes then you don’t have to issue a closure order."
 },
 {
   "Code": "16-64-7.4.a",
   "Section": "pH and Alkalinity Control",
   "Description": "pH requirement",
   "Closure": "Yes",
   "FullText": "7.4.a. A recreational water facility, except for bathing beaches, shall maintain the pH of the water in an alkaline condition of not less than seven point two (7.2) nor greater than seven point eight (7.8) at any time the facility is in use.",
   "Notes": ""
 },
 {
   "Code": "16-64-7.4.b",
   "Section": "pH and Alkalinity Control",
   "Description": "If gas chlorination, mechanical pH control feeder required",
   "Closure": "No",
   "FullText": "7.4.b. A recreational water facility that is equipped with gaseous chlorination feeders shall provide a mechanical chemical feeder to continuously control the pH. Hand batch feeding of chemicals to control pH is prohibited.",
   "Notes": ""
 },
 {
   "Code": "16-64-7.4c",
   "Section": "pH and Alkalinity Control",
   "Description": "Total Alkalinity requirement",
   "Closure": "No",
   "FullText": "7.4.c. A recreational water facility, except for bathing beaches, shall maintain the total alkalinity at a level between sixty (60) and one hundred eighty (180) milligrams per liter (mg/l) as calcium carbonate.",
   "Notes": ""
 },
 {
   "Code": "64-16-7.5.a",
   "Section": "Water Clarity",
   "Description": "Water clarity requirement",
   "Closure": "Yes",
   "FullText": "7.5.a. A recreational water facility, except for bathing beaches, shall maintain sufficient water clarity to allow the main drain or a six (6) inch black disk on the bottom of the deepest part of the recreational water facility to be readily visible when viewed from the recreational water facility deck.",
   "Notes": ""
 },
 {
   "Code": "64-16-8.1",
   "Section": "Control Tests and Operation Records",
   "Description": "Test kit available",
   "Closure": "No",
   "FullText": "8.1. Except for bathing beaches, recreational water facilities shall have available at all times approved testing equipment for determining pH, free chlorine, total chlorine, total alkalinity, and other tests required by the Commissioner.",
   "Notes": ""
 },
 {
   "Code": "64-16-8.2",
   "Section": "Control Tests and Operation Records",
   "Description": "Test kit is DPD type",
   "Closure": "No",
   "FullText": "8.2. Equipment used for testing free or total chlorine shall use the DPD (N, N-Diethyl-P-Phenylenediamine) method. Test strips or Oxidation Reduction Potential (ORP) may be used as a measuring parameter, but shall not be used when registering required readings on daily operational reports required by the Commissioner.",
   "Notes": "Digital test kits are also acceptable"
 },
 {
   "Code": "64-16-8.3",
   "Section": "Control Tests and Operation Records",
   "Description": "Operator maintains records for 1 year",
   "Closure": "No",
   "FullText": "8.3. The operator shall maintain for a minimum of one (1) year written results of required tests, attendance data, number of hours of equipment operation, and any other information required by the Commissioner.",
   "Notes": ""
 },
 {
   "Code": "64-16-8.4",
   "Section": "Control Tests and Operation Records",
   "Description": "Operator users forms provided by the Commissioner",
   "Closure": "No",
   "FullText": "8.4. The operator shall submit on forms obtained from the Commissioner a weekly summary of operation and tests to the Commissioner.",
   "Notes": "Facilities may develop their own forms, if their form contains all of the required information.  Reports generated by automated systems are also acceptable if the form contains all of the required information."
 },
 {
   "Code": "64-16-8.5",
   "Section": "Control Tests and Operation Records",
   "Description": "Operator tests chlorine and pH twice daily",
   "Closure": "No",
   "FullText": "8.5. Except for bathing beaches, the operator shall conduct tests to determine the pH and free chlorine residual of the water not less than twice daily, and record the results on the weekly summary required under subsection 8.4 of this section.",
   "Notes": ""
 },
 {
   "Code": "64-16-8.6",
   "Section": "Control Tests and Operation Records",
   "Description": "Test kit reagents replaced once per year",
   "Closure": "No",
   "FullText": "8.6. The operator shall properly maintain test kits in good condition. All test reagents must be replaced at the beginning of a new testing season for a seasonal facility, as required by the test kit manufacturer, and whenever any reagent is found to be defective, but in no case may a reagent be used over one (1) year from the date of purchase. Only those reagents manufactured for the test kit in use shall be used.",
   "Notes": "If the reagent bottle / container has an expiration date then use that to determine when the reagent needs to be replaced."
 },
 {
   "Code": "64-16-8.7",
   "Section": "Control Tests and Operation Records",
   "Description": "Facility closes when the chlorine residual is less than 1 ppm",
   "Closure": "Yes",
   "FullText": "8.7. Except for bathing beaches, when a control test indicates that the free chlorine residual is less than one (1) milligram per liter (mg/l), the recreational water facility shall cease operations until the free chlorine level is one (1) milligram per liter (mg/l) or above.",
   "Notes": ""
 },
 {
   "Code": "64-16-8.8",
   "Section": "Control Tests and Operation Records",
   "Description": "Facility closes when the bromine residual is less than 2 ppm",
   "Closure": "Yes",
   "FullText": "8.8. Except for bathing beaches, when a control test indicates that the free bromine residual is less than two (2) milligrams per liter (mg/l), the recreational water facility shall cease operations until the free bromine level is two (2) milligrams per liter (mg/l) or above.",
   "Notes": ""
 },
 {
   "Code": "64-16-9.1",
   "Section": "Supervision of Patrons",
   "Description": "Qualified Water Facility Operator available",
   "Closure": "Yes",
   "FullText": "9.1. Except for bathing beaches, a qualified water facility operator shall be available for consultation at all times the recreational water facility is open for use.",
   "Notes": "A person can be a Qualified Operator for more than one Recreational Water Facility if they can meet the availablity requirements in 64-16-2.1:<br><br>Available Qualified Water Facility Operator - a person who can be reached by telephone within thirty (30) minutes, and can be on site within sixty (60) minutes of notification, and visits the recreational water facility a minimum of one (1) time per week during the period of operation, as this term is used in section 9.1. of this rule."
 },
 {
   "Code": "64-16-9.2.a",
   "Section": "Supervision of Patrons",
   "Description": "Operator can exclude patrons that do not follow the rules",
   "Closure": "No",
   "FullText": "9.2. The operator shall have the authority to:<br><br>9.2.a. Exclude from the premises any patron who does not follow the safety and sanitation rules; and",
   "Notes": ""
 },
 {
   "Code": "64-16-9.2.b",
   "Section": "Supervision of Patrons",
   "Description": "Operator can evacuate the facility",
   "Closure": "No",
   "FullText": "9.2. The operator shall have the authority to:<br><br>9.2.b. Evacuate the facility as needed to protect the health and safety of the employees.",
   "Notes": ""
 },
 {
   "Code": "64-16-9.3.a",
   "Section": "Supervision of Patrons",
   "Description": "No urination, defecation, spitting, spouting water",
   "Closure": "No",
   "FullText": "9.3. The operator shall supervise the patrons and enforce the following rules:<br><br>9.3.a. An individual shall not urinate, defecate, spit, spout water, or blow his or her nose in the water.",
   "Notes": ""
 },
 {
   "Code": "64-16-9.3.b",
   "Section": "Supervision of Patrons",
   "Description": "No open sores or infectious disease",
   "Closure": "No",
   "FullText": "9.3. The operator shall supervise the patrons and enforce the following rules:<br><br>9.3.b. Patrons who have open sores, or an infectious disease that is transmissible by water may not use the recreational water facility.",
   "Notes": ""
 },
 {
   "Code": "64-16-9.3.c",
   "Section": "Supervision of Patrons",
   "Description": "Patron swimming apparel shall be clean",
   "Closure": "No",
   "FullText": "9.3. The operator shall supervise the patrons and enforce the following rules:<br><br>9.3.c. Patrons and the apparel they wear in the water shall be visibly clean.",
   "Notes": ""
 },
 {
   "Code": "64-16-9.3.d",
   "Section": "Supervision of Patrons",
   "Description": "Children in diapers shall wear tight fitting apparel",
   "Closure": "No",
   "FullText": "9.3. The operator shall supervise the patrons and enforce the following rules:<br><br>9.3.d. Children who are not toilet trained shall wear tight fitting plastic underwear that will prevent leakage, or use other appropriate apparel approved by the Commissioner.",
   "Notes": ""
 },
 {
   "Code": "64-16-9.3.e",
   "Section": "Supervision of Patrons",
   "Description": "No patrons under the influence of drugs or alcohol",
   "Closure": "No",
   "FullText": "9.3. The operator shall supervise the patrons and enforce the following rules:<br><br>9.3.e. Patrons under the influence of drugs or alcohol or exhibiting disruptive behavior are not permitted in the recreational water facility.",
   "Notes": ""
 },
 {
   "Code": "64-16-9.3.f",
   "Section": "Supervision of Patrons",
   "Description": "Animals not permitted",
   "Closure": "No",
   "FullText": "9.3. The operator shall supervise the patrons and enforce the following rules:<br><br>9.3.f. Except for service animals, animals shall not be allowed in the recreational water facility.",
   "Notes": ""
 },
 {
   "Code": "64-16-9.3.g",
   "Section": "Supervision of Patrons",
   "Description": "Food and drink in designated areas",
   "Closure": "No",
   "FullText": "9.3. The operator shall supervise the patrons and enforce the following rules:<br><br>9.3.g. Food, drink, gum, and tobacco may be used only in designated and controlled areas.",
   "Notes": ""
 },
 {
   "Code": "64-16-9.3.h",
   "Section": "Supervision of Patrons",
   "Description": "Glass containers prohibited",
   "Closure": "No",
   "FullText": "9.3. The operator shall supervise the patrons and enforce the following rules:<br><br>9.3.h. Glass containers or other materials that might create hazardous conditions or interfere with efficient operation of the facility are not allowed.",
   "Notes": ""
 },
 {
   "Code": "64-16-9.3.i",
   "Section": "Supervision of Patrons",
   "Description": "Diving only allowed where the water is more than 5 feet deep",
   "Closure": "No",
   "FullText": "9.3. The operator shall supervise the patrons and enforce the following rules:<br><br>9.3.i. Diving from the deck shall be permitted only in designated areas where the water is more than five (5) feet in depth.",
   "Notes": ""
 },
 {
   "Code": "64-16-9.4",
   "Section": "Supervision of Patrons",
   "Description": "Facility shall post rules",
   "Closure": "No",
   "FullText": "9.4. The recreational water facility shall prominently post the rules applicable to patron behavior so as to be readily visible to the patrons.",
   "Notes": ""
 },
 {
   "Code": "64-16-10.1",
   "Section": "Safety Requirements",
   "Description": "Shepherds crook and reach pole",
   "Closure": "Yes",
   "FullText": "10.1. A recreational water facility shall have a Shepherd’s crook and reach pole available for use.",
   "Notes": ""
 },
 {
   "Code": "64-16-10.2",
   "Section": "Safety Requirements",
   "Description": "Rescue tubes for lifeguards",
   "Closure": "Yes",
   "FullText": "10.2. At recreational water facilities with lifeguards, the facility shall provide one (1) rescue tube for each lifeguard on duty that is readily accessible for emergency use.",
   "Notes": ""
 },
 {
   "Code": "64-16-10.3",
   "Section": "Safety Requirements",
   "Description": "One unit of life saving equipment required",
   "Closure": "Yes",
   "FullText": "10.3. At recreational water facilities without lifeguards, the facility shall provide a minimum of one (1) unit of life saving equipment available for patron use as approved by the Commissioner.",
   "Notes": ""
 },
 {
   "Code": "64-16-10.4",
   "Section": "Safety Requirements",
   "Description": "Maintain equipment in good repair",
   "Closure": "No",
   "FullText": "10.4. A recreational water facility shall maintain all equipment in good repair.",
   "Notes": ""
 },
 {
   "Code": "64-16-10.5",
   "Section": "Safety Requirements",
   "Description": "First Aid kit required",
   "Closure": "Yes",
   "FullText": "10.5. A recreational water facility shall be equipped with a readily available, fully stocked first aid kit according to the provisions in subsection 2.5 of this rule.",
   "Notes": "2.5. First Aid Kit. -- A packaged set of materials used for emergency treatment of injured or sick persons before professional medical care is available that includes a minimum of: adhesive compresses or band-aids of various sizes; adhesive tape; eye dressing pads (4\" x 4\" and 3\" x 3\"); gauze pads (4\" x 4\" and 3\" x 3\"); roller gauze (2\", 3\" and 4\" widths); scissors; tweezers; triangular bandages; cold packs; personal protective equipment, including latex or other impermeable gloves; and resuscitation masks with one-way valves."
 },
 {
   "Code": "64-16-10.6",
   "Section": "Safety Requirements",
   "Description": "Operator excludes lifeguards with open sores or infectious diseases",
   "Closure": "Yes",
   "FullText": "10.6. Operators shall not permit employees who have open sores or an infectious disease that is transmissible by water in the water or to serve as lifeguards.",
   "Notes": ""
 },
 {
   "Code": "64-16-10.7",
   "Section": "Safety Requirements",
   "Description": "Lifeguard personal protective equipment available",
   "Closure": "No",
   "FullText": "10.7. Each lifeguard on duty shall have immediate access to personal protective equipment including, but not limited to, a resuscitation mask and latex or other impermeable gloves.",
   "Notes": ""
 },
 {
   "Code": "64-16-10.8",
   "Section": "Safety Requirements",
   "Description": "Facilities required to provide lifeguards",
   "Closure": "Yes",
   "FullText": "10.8. Except for spas, hot tubs, and whirlpools, if a recreational water facility requires an admission fee such as a gate receipt, annual pass, or membership dues, or is used by an organized camp or a child care center, the facility shall provide certified lifeguards on duty at all times the facility is open according to the following:",
   "Notes": ""
 },
 {
   "Code": "64-16-10.8.a",
   "Section": "Safety Requirements",
   "Description": "Number of lifeguards required",
   "Closure": "Yes",
   "FullText": "10.8.a. The number of lifeguards required shall be determined by the size of the recreational water facility and the number of patrons as described in Table 64-16 B at the 0end of this rule. The operator may request in writing from the Commissioner a variance in the number of lifeguards required.",
   "Notes": "<p class=\"text-center text-weight-bold\">Table 64-16 B - LifeGuard Requirements</p><table><tr><th rowspan=\"2\">Number of Bathers</th><th colspan=\"6\">Water Surface Area (square feet)</th></tr><tr class=\"text-weight-bold\"><td style=\"border: 1px solid black;padding: 0.5rem 0.5rem;\">Up To 2000</td><td style=\"border: 1px solid black;padding: 0.5rem 0.5rem;\">2001 - 4000</td><td style=\"border: 1px solid black;padding: 0.5rem 0.5rem;\">4001 - 6000</td><td style=\"border: 1px solid black;padding: 0.5rem 0.5rem;\">6001 - 8000</td><td style=\"border: 1px solid black;padding: 0.5rem 0.5rem;\">8001 - 10000</td><td style=\"border: 1px solid black;padding: 0.5rem 0.5rem;\">10000 +</td></tr><tr><td style=\"border: 1px solid black;padding: 0.5rem 0.5rem;\">1 - 30</td><td style=\"border: 1px solid black;padding: 0.5rem 0.5rem;\">1</td><td style=\"border: 1px solid black;padding: 0.5rem 0.5rem;\">2</td><td style=\"border: 1px solid black;padding: 0.5rem 0.5rem;\">2</td><td style=\"border: 1px solid black;padding: 0.5rem 0.5rem;\">3</td><td style=\"border: 1px solid black;padding: 0.5rem 0.5rem;\">3</td><td style=\"border: 1px solid black;padding: 0.5rem 0.5rem;\">3</td></tr><tr><td style=\"border: 1px solid black;padding: 0.5rem 0.5rem;\">31 - 60</td><td style=\"border: 1px solid black;padding: 0.5rem 0.5rem;\">2</td><td style=\"border: 1px solid black;padding: 0.5rem 0.5rem;\">2</td><td style=\"border: 1px solid black;padding: 0.5rem 0.5rem;\">3</td><td style=\"border: 1px solid black;padding: 0.5rem 0.5rem;\">3</td><td style=\"border: 1px solid black;padding: 0.5rem 0.5rem;\">3</td><td style=\"border: 1px solid black;padding: 0.5rem 0.5rem;\">4</td></tr><tr><td style=\"border: 1px solid black;padding: 0.5rem 0.5rem;\">61 - 90</td><td style=\"border: 1px solid black;padding: 0.5rem 0.5rem;\">2</td><td style=\"border: 1px solid black;padding: 0.5rem 0.5rem;\">3</td><td style=\"border: 1px solid black;padding: 0.5rem 0.5rem;\">3</td><td style=\"border: 1px solid black;padding: 0.5rem 0.5rem;\">3</td><td style=\"border: 1px solid black;padding: 0.5rem 0.5rem;\">4</td><td style=\"border: 1px solid black;padding: 0.5rem 0.5rem;\">4</td></tr><tr><td style=\"border: 1px solid black;padding: 0.5rem 0.5rem;\">91 - 120</td><td style=\"border: 1px solid black;padding: 0.5rem 0.5rem;\">3</td><td style=\"border: 1px solid black;padding: 0.5rem 0.5rem;\">3</td><td style=\"border: 1px solid black;padding: 0.5rem 0.5rem;\">3</td><td style=\"border: 1px solid black;padding: 0.5rem 0.5rem;\">4</td><td style=\"border: 1px solid black;padding: 0.5rem 0.5rem;\">4</td><td style=\"border: 1px solid black;padding: 0.5rem 0.5rem;\">4</td></tr><tr><td style=\"border: 1px solid black;padding: 0.5rem 0.5rem;\">121 - 150</td><td style=\"border: 1px solid black;padding: 0.5rem 0.5rem;\">3</td><td style=\"border: 1px solid black;padding: 0.5rem 0.5rem;\">4</td><td style=\"border: 1px solid black;padding: 0.5rem 0.5rem;\">4</td><td style=\"border: 1px solid black;padding: 0.5rem 0.5rem;\">4</td><td style=\"border: 1px solid black;padding: 0.5rem 0.5rem;\">4</td><td style=\"border: 1px solid black;padding: 0.5rem 0.5rem;\">4</td></tr><tr><td style=\"border: 1px solid black;padding: 0.5rem 0.5rem;\">150 +</td><td style=\"border: 1px solid black;padding: 0.5rem 0.5rem;\">3</td><td style=\"border: 1px solid black;padding: 0.5rem 0.5rem;\">4</td><td style=\"border: 1px solid black;padding: 0.5rem 0.5rem;\">4</td><td style=\"border: 1px solid black;padding: 0.5rem 0.5rem;\">4</td><td style=\"border: 1px solid black;padding: 0.5rem 0.5rem;\">4</td><td style=\"border: 1px solid black;padding: 0.5rem 0.5rem;\">5</td></tr></table>"
 },
 {
   "Code": "64-16-10.8.b",
   "Section": "Safety Requirements",
   "Description": "Lifeguard certification required for lifeguards",
   "Closure": "No",
   "FullText": "10.8.b. A lifeguard shall have a current life guarding certificate from the American Red Cross, Ellis and Associates, the YMCA, or an equivalent organization approved by the Commissioner.",
   "Notes": ""
 },
 {
   "Code": "64-16-10.8.c",
   "Section": "Safety Requirements",
   "Description": "CPR certification required for lifeguards",
   "Closure": "No",
   "FullText": "10.8.c. A lifeguard shall have a current cardiopulmonary resuscitation (CPR) certificate from the American Red Cross, the American Heart Association, the National Safety Council, or an equivalent organization approved by the Commissioner.",
   "Notes": ""
 },
 {
   "Code": "64-16-10.8.d",
   "Section": "Safety Requirements",
   "Description": "First Aid certification required for lifeguards",
   "Closure": "No",
   "FullText": "10.8.d. A lifeguard shall have a current first aid certificate, equal to or better than the American Red Cross Standard First Aid or National Safety Council First Aid Certification or an equivalent organization approved by the Commissioner.",
   "Notes": ""
 },
 {
   "Code": "64-16-10.8.e",
   "Section": "Safety Requirements",
   "Description": "No unattended childern in wading pools",
   "Closure": "No",
   "FullText": "10.8.e. Parents or accompanying adults shall not leave children unattended in a wading pool.",
   "Notes": ""
 },
 {
   "Code": "64-16-10.8.f.1",
   "Section": "Safety Requirements",
   "Description": "Lifeguards not required for semi-public facilities",
   "Closure": "No",
   "FullText": "10.8.f. The employment of lifeguards is recommended, but not mandatory at:<br><br>10.8.f.1. Mobile home parks, travel trailer camps, hotels, motels, apartment complexes, condominiums or private residential communities that have recreational water facilities  that are available for use only to the residents; or",
   "Notes": ""
 },
 {
   "Code": "64-16-10.8.f.2",
   "Section": "Safety Requirements",
   "Description": "Lifeguards not required for facilities less than 5 feet deep",
   "Closure": "No",
   "FullText": "10.8.f. The employment of lifeguards is recommended, but not mandatory at:<br><br>10.8.f.2. Mobile home parks, travel trailer camps, hotels, motels, apartment complexes, condominiums or private residential communities that have recreational water facilities with a depth of five (5) feet or less.",
   "Notes": ""
 },
 {
   "Code": "64-16-10.8.g",
   "Section": "Safety Requirements",
   "Description": "Warning signs required for facilities with no lifeguards",
   "Closure": "No",
   "FullText": "10.8.g. If the facility employs no lifeguards, the management shall post a sign in a prominent location near the recreational water facility stating \"Warning: No lifeguard on duty – All persons under the age of fourteen (14) must be accompanied by an adult”.",
   "Notes": ""
 },
 {
   "Code": "64-16-10.9",
   "Section": "Safety Requirements",
   "Description": "Bloodborne pathogen plan required",
   "Closure": "No",
   "FullText": "10.9. Each recreational water facility shall have a blood-borne pathogen plan based on the Occupational Safety and Health Administration’s standards.",
   "Notes": ""
 },
 {
   "Code": "64-16-10.10",
   "Section": "Safety Requirements",
   "Description": "Emergency phone required",
   "Closure": "Yes",
   "FullText": "10.10. Telephone service shall be available within one hundred (100) feet of the recreational water facility, and emergency phone numbers for rescue agencies shall be posted.",
   "Notes": ""
 },
 {
   "Code": "64-16-10.11",
   "Section": "Safety Requirements",
   "Description": "Emergency action plan required",
   "Closure": "No",
   "FullText": "10.11. Each recreational water facility shall have a written emergency action plan that includes all life-threatening emergencies, nonlife-threatening emergencies, chemical spills, and environmental emergencies.",
   "Notes": ""
 },
 {
   "Code": "64-16-10.12",
   "Section": "Safety Requirements",
   "Description": "Facility takes approprate measures to avoid suction entrapment",
   "Closure": "Yes",
   "FullText": "10.12. The recreational water facility shall take appropriate measures to avoid entrapment of patrons on drains.",
   "Notes": "If a facility has loose, cracked or missing main drain covers, or other suction outlet covers, the facility must be closed until the problem is corrected."
 },
 {
   "Code": "64-16-10.12.a",
   "Section": "Safety Requirements",
   "Description": "Requirements for pools with a single suction outlet",
   "Closure": "Potential",
   "FullText": "10.12.a. Pools with single suction outlets must meet National Spa and Pool Institute ANSI/NSPI-1 2003 Standard for Public Swimming Pools, public spa suction outlets must meet ANSI/NSPI-2 1999 Standard for Public Spas, and Public Water Park suction outlets must meet ANSI/IAF-9 2005 Standard for Public Water Parks and ANSI/APSP-7 2006 National Standards for Suction Entrapment Avoidance in Swimming Pools, Wading Pools, Spa, Hot Tubs, and Catch Basins. These standards are available through the internet at: http://www.nspi.org/home.",
   "Notes": "All facilities with a single suction outlet should be retrofitted with one of the suction entrapment avoidance measures that are listed in ANSI/APSP-7 2006 section 6.3.  If a sanitarian finds a facility without one of the required remedies, they may discuss a time frame for correction with the owner/operator in leau of an immediate closure.  Any facility with an existing remedy, such as a safety vacuum release system, that is not operating correctly should be closed until the problem is corrected."
 },
 {
   "Code": "64-16-10.12.b",
   "Section": "Safety Requirements",
   "Description": "Shut off switch and audible alarm for hot tubs",
   "Closure": "No",
   "FullText": "10.12.b. Spas constructed, installed, or modified after July 1, 2002 shall provide an emergency shut-off switch and an audible alarm placed within twenty (20) feet of the spa.",
   "Notes": ""
 },
 {
   "Code": "64-16-10.13",
   "Section": "Safety Requirements",
   "Description": "Recreational Water Facilties meet state Fire Code",
   "Closure": "No",
   "FullText": "10.13. Recreational water facilities shall comply with applicable provisions of the State Fire Commission’s rule, “Fire Code,” 87CSR1.",
   "Notes": ""
 },
 {
   "Code": "64-16-10.14",
   "Section": "Safety Requirements",
   "Description": "Bather load determined by ANSI/APSP-1",
   "Closure": "No",
   "FullText": "10.14. The patron load shall be determined by the National Spa and Pool Institute ANSI/NSPI-1 2003 Standard for Public Swimming Pools or the most current design standard.",
   "Notes": "<p class=\"text-center text-weight-bold\">ANSI/SNPI-1 2003 Table 3 - Maximum User Load</p><table><tr><th>Pool / Deck Area</th><th>Shallow instructional or wading areas</th><th>Deep area (not including the diving area)</th><th>Diving area (per each diving board)</th></tr><tr><td style=\"border: 1px solid black;padding: 0.5rem 0.5rem;\">Pools with minimum deck area (See 7.1.6 through 7.1.6.1)</td><td style=\"border: 1px solid black;padding: 0.5rem 0.5rem;\">15 sq ft per user<br>(1.35 sq m per user)</td><td style=\"border: 1px solid black;padding: 0.5rem 0.5rem;\">20 sq ft per user<br>(1.8 sq m per user)</td><td style=\"border: 1px solid black;padding: 0.5rem 0.5rem;\">300 sq ft<br>(27 sq m)</td></tr><tr><td style=\"border: 1px solid black;padding: 0.5rem 0.5rem;\">Pools with deck area at least equal to water surface area</td><td style=\"border: 1px solid black;padding: 0.5rem 0.5rem;\">12 sq ft per user<br>(1.08 sq m per user)</td><td style=\"border: 1px solid black;padding: 0.5rem 0.5rem;\">15 sq ft per user<br>(1.35 sq m per user)</td><td style=\"border: 1px solid black;padding: 0.5rem 0.5rem;\">300 sq ft<br>(27 sq m)</td></tr><tr><td style=\"border: 1px solid black;padding: 0.5rem 0.5rem;\">Pools with deck area at least twice the water surface area</td><td style=\"border: 1px solid black;padding: 0.5rem 0.5rem;\">8 sq ft per user<br>(0.72 sq m per user)</td><td style=\"border: 1px solid black;padding: 0.5rem 0.5rem;\">10 sq ft per user<br>(0.9 sq m per user)</td><td style=\"border: 1px solid black;padding: 0.5rem 0.5rem;\">300 sq ft<br>(27 sq m)</td></tr></table>"
 },
 {
   "Code": "64-16-11.1.a",
   "Section": "Routine Maintenance and Operation",
   "Description": "Deck and bath house kept clean",
   "Closure": "No",
   "FullText": "11.1. The following requirement applies to all recreational water facilities:<br><br>11.1.a. A recreational water facility shall keep deck areas, sidewalks and other areas around the recreational water facility and bath house clean.",
   "Notes": ""
 },
 {
   "Code": "64-16-11.2.a",
   "Section": "Routine Maintenance and Operation",
   "Description": "Operator removes debris from the facility bottom every 12 hours",
   "Closure": "No",
   "FullText": "11.2. The following requirements apply to all recreational water facilities except bathing beaches:<br><br>11.2.a. The operator shall remove visible debris from the bottom of the recreational water facility every twelve (12) hours or as often as necessary to maintain visibility and maximize safety.",
   "Notes": ""
 },
 {
   "Code": "64-16-11.2.b",
   "Section": "Routine Maintenance and Operation",
   "Description": "Operator maintains the water surface free of scum and floating matter",
   "Closure": "No",
   "FullText": "11.2. The following requirements apply to all recreational water facilities except bathing beaches:<br><br>11.2.b. The operator shall maintain the water surface of a recreational water facility free of visible scum and floating matter.",
   "Notes": ""
 },
 {
   "Code": "64-16-11.2.c",
   "Section": "Routine Maintenance and Operation",
   "Description": "Operator drains the facility as necessary",
   "Closure": "No",
   "FullText": "11.2. The following requirements apply to all recreational water facilities except bathing beaches:<br><br>11.2.c. The operator shall drain the recreational water facility as necessary for inspection, cleaning, or repair.",
   "Notes": ""
 },
 {
   "Code": "64-16-11.2.d",
   "Section": "Routine Maintenance and Operation",
   "Description": "Water treatment equipment runs 24 hours a day",
   "Closure": "Yes",
   "FullText": "11.2. The following requirements apply to all recreational water facilities except bathing beaches:<br><br>11.2.d. The operator shall ensure that the recreational water facility operates the water treatment equipment twenty-four (24) hours per day.",
   "Notes": ""
 },
 {
   "Code": "64-16-11.3",
   "Section": "Routine Maintenance and Operation",
   "Description": "Ventilation meets ANSI/ASHRAE Standard 62.1-2004",
   "Closure": "No",
   "FullText": "11.3. A recreational water facility shall ensure that ventilation for indoor recreational water facilities meets ANSI/ASHRAE Standard 62.1-2004 Ventilation for Acceptable Indoor Air Quality or the most current design standard. This standard is available through the internet at: http://www.ashrae.org.",
   "Notes": ""
 },
 {
   "Code": "64-16-12.1",
   "Section": "Bathhouses, Concessions, and Other Appurtenant Facilities",
   "Description": "Restroom facilities and drinking fountains provided per State Building Code",
   "Closure": "No",
   "FullText": "12.1. A recreational water facility shall provide toilets, lavatories, showers and drinking fountains as required by the State Fire Commission rule, “State Building Code,” 87CSR4.",
   "Notes": ""
 },
 {
   "Code": "64-16-12.2",
   "Section": "Bathhouses, Concessions, and Other Appurtenant Facilities",
   "Description": "Bathhouse and other facilities kept clean",
   "Closure": "No",
   "FullText": "12.2. A recreational water facility shall keep bathhouses, clothing storage facilities, toilet facilities, shower facilities and other appurtenant facilities in good repair and in a clean, sanitary condition.",
   "Notes": ""
 },
 {
   "Code": "64-16-12.3",
   "Section": "Bathhouses, Concessions, and Other Appurtenant Facilities",
   "Description": "Toilet tissue available",
   "Closure": "No",
   "FullText": "12.3. A recreational water facility shall ensure that a supply of toilet tissue is available at each toilet.",
   "Notes": ""
 },
 {
   "Code": "64-16-12.4",
   "Section": "Bathhouses, Concessions, and Other Appurtenant Facilities",
   "Description": "Soap and paper towels available",
   "Closure": "No",
   "FullText": "12.4. A recreational water facility shall provide hand cleanser and an approved hand drying device at each lavatory or group of adjacent lavatories.",
   "Notes": ""
 },
 {
   "Code": "64-16-12.5",
   "Section": "Bathhouses, Concessions, and Other Appurtenant Facilities",
   "Description": "Hot and cold running water available",
   "Closure": "No",
   "FullText": "12.5. A recreational water facility shall ensure that hot and cold running water is supplied from mixing faucets for showers and lavatories, or that tempered water is provided in lieu of hot and cold running water supplied from mixing faucets.",
   "Notes": ""
 },
 {
   "Code": "64-16-12.6",
   "Section": "Bathhouses, Concessions, and Other Appurtenant Facilities",
   "Description": "Concession stands have a Food Establishment permit",
   "Closure": "No",
   "FullText": "12.6. A recreational water facility that provides a concession stand shall operate the concession stand in accordance with Division of Health rule, “Food Establishments,” 64CSR17.",
   "Notes": ""
 },
 {
   "Code": "64-16-12.7",
   "Section": "Bathhouses, Concessions, and Other Appurtenant Facilities",
   "Description": "Required signage in the pump room",
   "Closure": "No",
   "FullText": "12.7. A recreational water facility shall provide a placard in the filter room that lists the water volume and gallons per minute of water needed for the pool’s turnover rate.",
   "Notes": ""
 },
 {
   "Code": "64-16-13.1.a",
   "Section": "Compliance",
   "Description": "Closure Item: free chlorine below 1 ppm",
   "Closure": "Yes",
   "FullText": "13.1. Except for bathing beaches, if any of the following events described in subdivisions 13.1.a through 13.1.i of this section occur while a recreational water facility is in use, the operator shall close the recreational water facility and take the corrective action specified in Table 64-16 A at the end of this rule before reopening the facility:<br><br>13.1.a. The free chlorine residual of water is less than one (1) milligram per liter (mg/l).",
   "Notes": "<p class=\"text-center text-weight-bold\">Table 64-16 A - Closure Requirements</p><table style=\"border-collapse: collapse;text-align: left;margin: auto;width: 100%;\"><tr style=\"text-align: center;\"><th>Closure Event</th><th>Corrective Action Required</th></tr><tr><td style=\"border: 1px solid black;padding: 0.5rem 0.5rem;\">A. Free Chlorine = less than 1.0 ppm</td><td style=\"border: 1px solid black;padding: 0.5rem 0.5rem;\">Close the facility.  Determine the cause.  Make repairs or corrections.</td></tr><tr><td style=\"border: 1px solid black;padding: 0.5rem 0.5rem;\">B. pH of water = greater than 7.8</td><td style=\"border: 1px solid black;padding: 0.5rem 0.5rem;\">Close the facility.  Determine the cause.  Make repairs or corrections.</td></tr><tr><td style=\"border: 1px solid black;padding: 0.5rem 0.5rem;\">C. pH of water = less than 7.2</td><td style=\"border: 1px solid black;padding: 0.5rem 0.5rem;\">Close the facility.  Determine the cause.  Make repairs or corrections.</td></tr><tr><td style=\"border: 1px solid black;padding: 0.5rem 0.5rem;\">D. Inadequate lifeguards or lifesaving equipment</td><td style=\"border: 1px solid black;padding: 0.5rem 0.5rem;\">Close the facility unitl the required number of lifeguards and lifesaving equipment are provided.</td></tr><tr><td style=\"border: 1px solid black;padding: 0.5rem 0.5rem;\">E. Accident Resulting in:<br>Lifeguard leaving station OR Body fluids discharged into water</td><td style=\"border: 1px solid black;padding: 0.5rem 0.5rem;\">Close the facility unitl the lifeguard returns to station.  Follow fecal accident cleanup procedures outlined below if blood or feces are discharged inot the water.</td></tr><td style=\"border: 1px solid black;padding: 0.5rem 0.5rem;\">F. Water Clarity Unsatisfactory (Main drain or 6 inch black disk in the deepest water on the bottom of a pool or spa not visible from the adjacent deck)</td><td style=\"border: 1px solid black;padding: 0.5rem 0.5rem;\">Close the affected area until the main drain or a six (6) inch black disk in the deepest water on the bottom of a pool or spa is visible from the adjacent deck.  Determine cause. Make repairs or corrections.</td></tr><tr><td style=\"border: 1px solid black;padding: 0.5rem 0.5rem;\">G. Free bromine = less than 2.0 ppm</td><td style=\"border: 1px solid black;padding: 0.5rem 0.5rem;\">Close the facility.  Determine the cause.  Make repairs or corrections.</td></tr><tr><td style=\"border: 1px solid black;padding: 0.5rem 0.5rem;\">H. Equipment Failure - Main pump, disinfectant feed equipment, or main drain covers.</td><td style=\"border: 1px solid black;padding: 0.5rem 0.5rem;\">Close the facility immediately upon main pump failure.  Close the facility when disinfectant feed equipment fails and free chlorine falls below 1.0 ppm or free bromine falls below 2.0 ppm.  Repair equipment. Test and balance chemical parameters prior to re-pening the recreational water facility. Close facility if main drain covers are missing, loose, or broken. Replace, secure, or repair as required.</td></tr></table><p>For fecal accidents use the latest version of <span class=\"text-weight-bold\">Fecal Incident Response Recommendations for Aquatic Staff</span> in the Recreational Water - Reference section of the Field Guide.</p>"
 },
 {
   "Code": "64-16-13.1.b",
   "Section": "Compliance",
   "Description": "Closure Item: pH above 7.8",
   "Closure": "Yes",
   "FullText": "13.1. Except for bathing beaches, if any of the following events described in subdivisions 13.1.a through 13.1.i of this section occur while a recreational water facility is in use, the operator shall close the recreational water facility and take the corrective action specified in Table 64-16 A at the end of this rule before reopening the facility:<br><br>13.1.b. The pH of water is greater than seven point eight (7.8).",
   "Notes": "<p class=\"text-center text-weight-bold\">Table 64-16 A - Closure Requirements</p><table style=\"border-collapse: collapse;text-align: left;margin: auto;width: 100%;\"><tr style=\"text-align: center;\"><th>Closure Event</th><th>Corrective Action Required</th></tr><tr><td style=\"border: 1px solid black;padding: 0.5rem 0.5rem;\">A. Free Chlorine = less than 1.0 ppm</td><td style=\"border: 1px solid black;padding: 0.5rem 0.5rem;\">Close the facility.  Determine the cause.  Make repairs or corrections.</td></tr><tr><td style=\"border: 1px solid black;padding: 0.5rem 0.5rem;\">B. pH of water = greater than 7.8</td><td style=\"border: 1px solid black;padding: 0.5rem 0.5rem;\">Close the facility.  Determine the cause.  Make repairs or corrections.</td></tr><tr><td style=\"border: 1px solid black;padding: 0.5rem 0.5rem;\">C. pH of water = less than 7.2</td><td style=\"border: 1px solid black;padding: 0.5rem 0.5rem;\">Close the facility.  Determine the cause.  Make repairs or corrections.</td></tr><tr><td style=\"border: 1px solid black;padding: 0.5rem 0.5rem;\">D. Inadequate lifeguards or lifesaving equipment</td><td style=\"border: 1px solid black;padding: 0.5rem 0.5rem;\">Close the facility unitl the required number of lifeguards and lifesaving equipment are provided.</td></tr><tr><td style=\"border: 1px solid black;padding: 0.5rem 0.5rem;\">E. Accident Resulting in:<br>Lifeguard leaving station OR Body fluids discharged into water</td><td style=\"border: 1px solid black;padding: 0.5rem 0.5rem;\">Close the facility unitl the lifeguard returns to station.  Follow fecal accident cleanup procedures outlined below if blood or feces are discharged inot the water.</td></tr><td style=\"border: 1px solid black;padding: 0.5rem 0.5rem;\">F. Water Clarity Unsatisfactory (Main drain or 6 inch black disk in the deepest water on the bottom of a pool or spa not visible from the adjacent deck)</td><td style=\"border: 1px solid black;padding: 0.5rem 0.5rem;\">Close the affected area until the main drain or a six (6) inch black disk in the deepest water on the bottom of a pool or spa is visible from the adjacent deck.  Determine cause. Make repairs or corrections.</td></tr><tr><td style=\"border: 1px solid black;padding: 0.5rem 0.5rem;\">G. Free bromine = less than 2.0 ppm</td><td style=\"border: 1px solid black;padding: 0.5rem 0.5rem;\">Close the facility.  Determine the cause.  Make repairs or corrections.</td></tr><tr><td style=\"border: 1px solid black;padding: 0.5rem 0.5rem;\">H. Equipment Failure - Main pump, disinfectant feed equipment, or main drain covers.</td><td style=\"border: 1px solid black;padding: 0.5rem 0.5rem;\">Close the facility immediately upon main pump failure.  Close the facility when disinfectant feed equipment fails and free chlorine falls below 1.0 ppm or free bromine falls below 2.0 ppm.  Repair equipment. Test and balance chemical parameters prior to re-pening the recreational water facility. Close facility if main drain covers are missing, loose, or broken. Replace, secure, or repair as required.</td></tr></table><p>For fecal accidents use the latest version of <span class=\"text-weight-bold\">Fecal Incident Response Recommendations for Aquatic Staff</span> in the Recreational Water - Reference section of the Field Guide.</p>"
 },
 {
   "Code": "64-16-13.1.c",
   "Section": "Compliance",
   "Description": "Closure Item: pH below 7.2",
   "Closure": "Yes",
   "FullText": "13.1. Except for bathing beaches, if any of the following events described in subdivisions 13.1.a through 13.1.i of this section occur while a recreational water facility is in use, the operator shall close the recreational water facility and take the corrective action specified in Table 64-16 A at the end of this rule before reopening the facility:<br><br>13.1.c. The pH of water is less than seven point two (7.2).",
   "Notes": "<p class=\"text-center text-weight-bold\">Table 64-16 A - Closure Requirements</p><table style=\"border-collapse: collapse;text-align: left;margin: auto;width: 100%;\"><tr style=\"text-align: center;\"><th>Closure Event</th><th>Corrective Action Required</th></tr><tr><td style=\"border: 1px solid black;padding: 0.5rem 0.5rem;\">A. Free Chlorine = less than 1.0 ppm</td><td style=\"border: 1px solid black;padding: 0.5rem 0.5rem;\">Close the facility.  Determine the cause.  Make repairs or corrections.</td></tr><tr><td style=\"border: 1px solid black;padding: 0.5rem 0.5rem;\">B. pH of water = greater than 7.8</td><td style=\"border: 1px solid black;padding: 0.5rem 0.5rem;\">Close the facility.  Determine the cause.  Make repairs or corrections.</td></tr><tr><td style=\"border: 1px solid black;padding: 0.5rem 0.5rem;\">C. pH of water = less than 7.2</td><td style=\"border: 1px solid black;padding: 0.5rem 0.5rem;\">Close the facility.  Determine the cause.  Make repairs or corrections.</td></tr><tr><td style=\"border: 1px solid black;padding: 0.5rem 0.5rem;\">D. Inadequate lifeguards or lifesaving equipment</td><td style=\"border: 1px solid black;padding: 0.5rem 0.5rem;\">Close the facility unitl the required number of lifeguards and lifesaving equipment are provided.</td></tr><tr><td style=\"border: 1px solid black;padding: 0.5rem 0.5rem;\">E. Accident Resulting in:<br>Lifeguard leaving station OR Body fluids discharged into water</td><td style=\"border: 1px solid black;padding: 0.5rem 0.5rem;\">Close the facility unitl the lifeguard returns to station.  Follow fecal accident cleanup procedures outlined below if blood or feces are discharged inot the water.</td></tr><td style=\"border: 1px solid black;padding: 0.5rem 0.5rem;\">F. Water Clarity Unsatisfactory (Main drain or 6 inch black disk in the deepest water on the bottom of a pool or spa not visible from the adjacent deck)</td><td style=\"border: 1px solid black;padding: 0.5rem 0.5rem;\">Close the affected area until the main drain or a six (6) inch black disk in the deepest water on the bottom of a pool or spa is visible from the adjacent deck.  Determine cause. Make repairs or corrections.</td></tr><tr><td style=\"border: 1px solid black;padding: 0.5rem 0.5rem;\">G. Free bromine = less than 2.0 ppm</td><td style=\"border: 1px solid black;padding: 0.5rem 0.5rem;\">Close the facility.  Determine the cause.  Make repairs or corrections.</td></tr><tr><td style=\"border: 1px solid black;padding: 0.5rem 0.5rem;\">H. Equipment Failure - Main pump, disinfectant feed equipment, or main drain covers.</td><td style=\"border: 1px solid black;padding: 0.5rem 0.5rem;\">Close the facility immediately upon main pump failure.  Close the facility when disinfectant feed equipment fails and free chlorine falls below 1.0 ppm or free bromine falls below 2.0 ppm.  Repair equipment. Test and balance chemical parameters prior to re-pening the recreational water facility. Close facility if main drain covers are missing, loose, or broken. Replace, secure, or repair as required.</td></tr></table><p>For fecal accidents use the latest version of <span class=\"text-weight-bold\">Fecal Incident Response Recommendations for Aquatic Staff</span> in the Recreational Water - Reference section of the Field Guide.</p>"
 },
 {
   "Code": "64-16-13.1.d",
   "Section": "Compliance",
   "Description": "Closure Item: inadequate number of lifeguards",
   "Closure": "Yes",
   "FullText": "13.1. Except for bathing beaches, if any of the following events described in subdivisions 13.1.a through 13.1.i of this section occur while a recreational water facility is in use, the operator shall close the recreational water facility and take the corrective action specified in Table 64-16 A at the end of this rule before reopening the facility:<br><br>13.1.d. An inadequate number of lifeguards or lifesaving equipment is provided as required under this rule.",
   "Notes": "<p class=\"text-center text-weight-bold\">Table 64-16 A - Closure Requirements</p><table style=\"border-collapse: collapse;text-align: left;margin: auto;width: 100%;\"><tr style=\"text-align: center;\"><th>Closure Event</th><th>Corrective Action Required</th></tr><tr><td style=\"border: 1px solid black;padding: 0.5rem 0.5rem;\">A. Free Chlorine = less than 1.0 ppm</td><td style=\"border: 1px solid black;padding: 0.5rem 0.5rem;\">Close the facility.  Determine the cause.  Make repairs or corrections.</td></tr><tr><td style=\"border: 1px solid black;padding: 0.5rem 0.5rem;\">B. pH of water = greater than 7.8</td><td style=\"border: 1px solid black;padding: 0.5rem 0.5rem;\">Close the facility.  Determine the cause.  Make repairs or corrections.</td></tr><tr><td style=\"border: 1px solid black;padding: 0.5rem 0.5rem;\">C. pH of water = less than 7.2</td><td style=\"border: 1px solid black;padding: 0.5rem 0.5rem;\">Close the facility.  Determine the cause.  Make repairs or corrections.</td></tr><tr><td style=\"border: 1px solid black;padding: 0.5rem 0.5rem;\">D. Inadequate lifeguards or lifesaving equipment</td><td style=\"border: 1px solid black;padding: 0.5rem 0.5rem;\">Close the facility unitl the required number of lifeguards and lifesaving equipment are provided.</td></tr><tr><td style=\"border: 1px solid black;padding: 0.5rem 0.5rem;\">E. Accident Resulting in:<br>Lifeguard leaving station OR Body fluids discharged into water</td><td style=\"border: 1px solid black;padding: 0.5rem 0.5rem;\">Close the facility unitl the lifeguard returns to station.  Follow fecal accident cleanup procedures outlined below if blood or feces are discharged inot the water.</td></tr><td style=\"border: 1px solid black;padding: 0.5rem 0.5rem;\">F. Water Clarity Unsatisfactory (Main drain or 6 inch black disk in the deepest water on the bottom of a pool or spa not visible from the adjacent deck)</td><td style=\"border: 1px solid black;padding: 0.5rem 0.5rem;\">Close the affected area until the main drain or a six (6) inch black disk in the deepest water on the bottom of a pool or spa is visible from the adjacent deck.  Determine cause. Make repairs or corrections.</td></tr><tr><td style=\"border: 1px solid black;padding: 0.5rem 0.5rem;\">G. Free bromine = less than 2.0 ppm</td><td style=\"border: 1px solid black;padding: 0.5rem 0.5rem;\">Close the facility.  Determine the cause.  Make repairs or corrections.</td></tr><tr><td style=\"border: 1px solid black;padding: 0.5rem 0.5rem;\">H. Equipment Failure - Main pump, disinfectant feed equipment, or main drain covers.</td><td style=\"border: 1px solid black;padding: 0.5rem 0.5rem;\">Close the facility immediately upon main pump failure.  Close the facility when disinfectant feed equipment fails and free chlorine falls below 1.0 ppm or free bromine falls below 2.0 ppm.  Repair equipment. Test and balance chemical parameters prior to re-pening the recreational water facility. Close facility if main drain covers are missing, loose, or broken. Replace, secure, or repair as required.</td></tr></table><p>For fecal accidents use the latest version of <span class=\"text-weight-bold\">Fecal Incident Response Recommendations for Aquatic Staff</span> in the Recreational Water - Reference section of the Field Guide.</p>"
 },
 {
   "Code": "64-16-13.1.e",
   "Section": "Compliance",
   "Description": "Closure Item: lifeguard leaves station or body fluid discharge",
   "Closure": "Yes",
   "FullText": "13.1. Except for bathing beaches, if any of the following events described in subdivisions 13.1.a through 13.1.i of this section occur while a recreational water facility is in use, the operator shall close the recreational water facility and take the corrective action specified in Table 64-16 A at the end of this rule before reopening the facility:<br><br>13.1.e. An accident occurs that causes a lifeguard to leave his or her station or results in the discharge of body fluids into the water.",
   "Notes": "<p class=\"text-center text-weight-bold\">Table 64-16 A - Closure Requirements</p><table style=\"border-collapse: collapse;text-align: left;margin: auto;width: 100%;\"><tr style=\"text-align: center;\"><th>Closure Event</th><th>Corrective Action Required</th></tr><tr><td style=\"border: 1px solid black;padding: 0.5rem 0.5rem;\">A. Free Chlorine = less than 1.0 ppm</td><td style=\"border: 1px solid black;padding: 0.5rem 0.5rem;\">Close the facility.  Determine the cause.  Make repairs or corrections.</td></tr><tr><td style=\"border: 1px solid black;padding: 0.5rem 0.5rem;\">B. pH of water = greater than 7.8</td><td style=\"border: 1px solid black;padding: 0.5rem 0.5rem;\">Close the facility.  Determine the cause.  Make repairs or corrections.</td></tr><tr><td style=\"border: 1px solid black;padding: 0.5rem 0.5rem;\">C. pH of water = less than 7.2</td><td style=\"border: 1px solid black;padding: 0.5rem 0.5rem;\">Close the facility.  Determine the cause.  Make repairs or corrections.</td></tr><tr><td style=\"border: 1px solid black;padding: 0.5rem 0.5rem;\">D. Inadequate lifeguards or lifesaving equipment</td><td style=\"border: 1px solid black;padding: 0.5rem 0.5rem;\">Close the facility unitl the required number of lifeguards and lifesaving equipment are provided.</td></tr><tr><td style=\"border: 1px solid black;padding: 0.5rem 0.5rem;\">E. Accident Resulting in:<br>Lifeguard leaving station OR Body fluids discharged into water</td><td style=\"border: 1px solid black;padding: 0.5rem 0.5rem;\">Close the facility unitl the lifeguard returns to station.  Follow fecal accident cleanup procedures outlined below if blood or feces are discharged inot the water.</td></tr><td style=\"border: 1px solid black;padding: 0.5rem 0.5rem;\">F. Water Clarity Unsatisfactory (Main drain or 6 inch black disk in the deepest water on the bottom of a pool or spa not visible from the adjacent deck)</td><td style=\"border: 1px solid black;padding: 0.5rem 0.5rem;\">Close the affected area until the main drain or a six (6) inch black disk in the deepest water on the bottom of a pool or spa is visible from the adjacent deck.  Determine cause. Make repairs or corrections.</td></tr><tr><td style=\"border: 1px solid black;padding: 0.5rem 0.5rem;\">G. Free bromine = less than 2.0 ppm</td><td style=\"border: 1px solid black;padding: 0.5rem 0.5rem;\">Close the facility.  Determine the cause.  Make repairs or corrections.</td></tr><tr><td style=\"border: 1px solid black;padding: 0.5rem 0.5rem;\">H. Equipment Failure - Main pump, disinfectant feed equipment, or main drain covers.</td><td style=\"border: 1px solid black;padding: 0.5rem 0.5rem;\">Close the facility immediately upon main pump failure.  Close the facility when disinfectant feed equipment fails and free chlorine falls below 1.0 ppm or free bromine falls below 2.0 ppm.  Repair equipment. Test and balance chemical parameters prior to re-pening the recreational water facility. Close facility if main drain covers are missing, loose, or broken. Replace, secure, or repair as required.</td></tr></table><p>For fecal accidents use the latest version of <span class=\"text-weight-bold\">Fecal Incident Response Recommendations for Aquatic Staff</span> in the Recreational Water - Reference section of the Field Guide.</p>"
 },
 {
   "Code": "64-16-13.1.f",
   "Section": "Compliance",
   "Description": "Closure Item: free bromine below 2 ppm",
   "Closure": "Yes",
   "FullText": "13.1. Except for bathing beaches, if any of the following events described in subdivisions 13.1.a through 13.1.i of this section occur while a recreational water facility is in use, the operator shall close the recreational water facility and take the corrective action specified in Table 64-16 A at the end of this rule before reopening the facility:<br><br>13.1.f. The free bromine residual is less than two (2) milligrams per liter (mg/l).",
   "Notes": "<p class=\"text-center text-weight-bold\">Table 64-16 A - Closure Requirements</p><table style=\"border-collapse: collapse;text-align: left;margin: auto;width: 100%;\"><tr style=\"text-align: center;\"><th>Closure Event</th><th>Corrective Action Required</th></tr><tr><td style=\"border: 1px solid black;padding: 0.5rem 0.5rem;\">A. Free Chlorine = less than 1.0 ppm</td><td style=\"border: 1px solid black;padding: 0.5rem 0.5rem;\">Close the facility.  Determine the cause.  Make repairs or corrections.</td></tr><tr><td style=\"border: 1px solid black;padding: 0.5rem 0.5rem;\">B. pH of water = greater than 7.8</td><td style=\"border: 1px solid black;padding: 0.5rem 0.5rem;\">Close the facility.  Determine the cause.  Make repairs or corrections.</td></tr><tr><td style=\"border: 1px solid black;padding: 0.5rem 0.5rem;\">C. pH of water = less than 7.2</td><td style=\"border: 1px solid black;padding: 0.5rem 0.5rem;\">Close the facility.  Determine the cause.  Make repairs or corrections.</td></tr><tr><td style=\"border: 1px solid black;padding: 0.5rem 0.5rem;\">D. Inadequate lifeguards or lifesaving equipment</td><td style=\"border: 1px solid black;padding: 0.5rem 0.5rem;\">Close the facility unitl the required number of lifeguards and lifesaving equipment are provided.</td></tr><tr><td style=\"border: 1px solid black;padding: 0.5rem 0.5rem;\">E. Accident Resulting in:<br>Lifeguard leaving station OR Body fluids discharged into water</td><td style=\"border: 1px solid black;padding: 0.5rem 0.5rem;\">Close the facility unitl the lifeguard returns to station.  Follow fecal accident cleanup procedures outlined below if blood or feces are discharged inot the water.</td></tr><td style=\"border: 1px solid black;padding: 0.5rem 0.5rem;\">F. Water Clarity Unsatisfactory (Main drain or 6 inch black disk in the deepest water on the bottom of a pool or spa not visible from the adjacent deck)</td><td style=\"border: 1px solid black;padding: 0.5rem 0.5rem;\">Close the affected area until the main drain or a six (6) inch black disk in the deepest water on the bottom of a pool or spa is visible from the adjacent deck.  Determine cause. Make repairs or corrections.</td></tr><tr><td style=\"border: 1px solid black;padding: 0.5rem 0.5rem;\">G. Free bromine = less than 2.0 ppm</td><td style=\"border: 1px solid black;padding: 0.5rem 0.5rem;\">Close the facility.  Determine the cause.  Make repairs or corrections.</td></tr><tr><td style=\"border: 1px solid black;padding: 0.5rem 0.5rem;\">H. Equipment Failure - Main pump, disinfectant feed equipment, or main drain covers.</td><td style=\"border: 1px solid black;padding: 0.5rem 0.5rem;\">Close the facility immediately upon main pump failure.  Close the facility when disinfectant feed equipment fails and free chlorine falls below 1.0 ppm or free bromine falls below 2.0 ppm.  Repair equipment. Test and balance chemical parameters prior to re-pening the recreational water facility. Close facility if main drain covers are missing, loose, or broken. Replace, secure, or repair as required.</td></tr></table><p>For fecal accidents use the latest version of <span class=\"text-weight-bold\">Fecal Incident Response Recommendations for Aquatic Staff</span> in the Recreational Water - Reference section of the Field Guide.</p>"
 },
 {
   "Code": "64-16-13.1.g",
   "Section": "Compliance",
   "Description": "Closure Item: circulation pump or disinfectant equipment failure",
   "Closure": "Yes",
   "FullText": "13.1. Except for bathing beaches, if any of the following events described in subdivisions 13.1.a through 13.1.i of this section occur while a recreational water facility is in use, the operator shall close the recreational water facility and take the corrective action specified in Table 64-16 A at the end of this rule before reopening the facility:<br><br>13.1.g. A failure of the circulation pump or disinfectant feed equipment occurs.",
   "Notes": "<p class=\"text-center text-weight-bold\">Table 64-16 A - Closure Requirements</p><table style=\"border-collapse: collapse;text-align: left;margin: auto;width: 100%;\"><tr style=\"text-align: center;\"><th>Closure Event</th><th>Corrective Action Required</th></tr><tr><td style=\"border: 1px solid black;padding: 0.5rem 0.5rem;\">A. Free Chlorine = less than 1.0 ppm</td><td style=\"border: 1px solid black;padding: 0.5rem 0.5rem;\">Close the facility.  Determine the cause.  Make repairs or corrections.</td></tr><tr><td style=\"border: 1px solid black;padding: 0.5rem 0.5rem;\">B. pH of water = greater than 7.8</td><td style=\"border: 1px solid black;padding: 0.5rem 0.5rem;\">Close the facility.  Determine the cause.  Make repairs or corrections.</td></tr><tr><td style=\"border: 1px solid black;padding: 0.5rem 0.5rem;\">C. pH of water = less than 7.2</td><td style=\"border: 1px solid black;padding: 0.5rem 0.5rem;\">Close the facility.  Determine the cause.  Make repairs or corrections.</td></tr><tr><td style=\"border: 1px solid black;padding: 0.5rem 0.5rem;\">D. Inadequate lifeguards or lifesaving equipment</td><td style=\"border: 1px solid black;padding: 0.5rem 0.5rem;\">Close the facility unitl the required number of lifeguards and lifesaving equipment are provided.</td></tr><tr><td style=\"border: 1px solid black;padding: 0.5rem 0.5rem;\">E. Accident Resulting in:<br>Lifeguard leaving station OR Body fluids discharged into water</td><td style=\"border: 1px solid black;padding: 0.5rem 0.5rem;\">Close the facility unitl the lifeguard returns to station.  Follow fecal accident cleanup procedures outlined below if blood or feces are discharged inot the water.</td></tr><td style=\"border: 1px solid black;padding: 0.5rem 0.5rem;\">F. Water Clarity Unsatisfactory (Main drain or 6 inch black disk in the deepest water on the bottom of a pool or spa not visible from the adjacent deck)</td><td style=\"border: 1px solid black;padding: 0.5rem 0.5rem;\">Close the affected area until the main drain or a six (6) inch black disk in the deepest water on the bottom of a pool or spa is visible from the adjacent deck.  Determine cause. Make repairs or corrections.</td></tr><tr><td style=\"border: 1px solid black;padding: 0.5rem 0.5rem;\">G. Free bromine = less than 2.0 ppm</td><td style=\"border: 1px solid black;padding: 0.5rem 0.5rem;\">Close the facility.  Determine the cause.  Make repairs or corrections.</td></tr><tr><td style=\"border: 1px solid black;padding: 0.5rem 0.5rem;\">H. Equipment Failure - Main pump, disinfectant feed equipment, or main drain covers.</td><td style=\"border: 1px solid black;padding: 0.5rem 0.5rem;\">Close the facility immediately upon main pump failure.  Close the facility when disinfectant feed equipment fails and free chlorine falls below 1.0 ppm or free bromine falls below 2.0 ppm.  Repair equipment. Test and balance chemical parameters prior to re-pening the recreational water facility. Close facility if main drain covers are missing, loose, or broken. Replace, secure, or repair as required.</td></tr></table><p>For fecal accidents use the latest version of <span class=\"text-weight-bold\">Fecal Incident Response Recommendations for Aquatic Staff</span> in the Recreational Water - Reference section of the Field Guide.</p>"
 },
 {
   "Code": "64-16-13.1.h",
   "Section": "Compliance",
   "Description": "Closure Item: Accidental Fecal Release",
   "Closure": "Yes",
   "FullText": "13.1. Except for bathing beaches, if any of the following events described in subdivisions 13.1.a through 13.1.i of this section occur while a recreational water facility is in use, the operator shall close the recreational water facility and take the corrective action specified in Table 64-16 A at the end of this rule before reopening the facility:<br><br>13.1.h. A fecal accident occurs or blood or vomitus is released into the water.",
   "Notes": "If it was not an accident, this code still applies"
 },
 {
   "Code": "64-16-13.2",
   "Section": "Compliance",
   "Description": "Operator closes affected area if the rest of the facility is not affected",
   "Closure": "Yes",
   "FullText": "13.2. Except for bathing beaches, the operator shall close only the affected area of the recreational water facility if the water clarity is not in compliance with subsection 7.5 of this rule.",
   "Notes": ""
 },
 {
   "Code": "64-16-13.3",
   "Section": "Compliance",
   "Description": "Bathing Beach Closure Item: lifeguard leaves station",
   "Closure": "Yes",
   "FullText": "13.3. At a bathing beach, if an inadequate number of lifeguards or lifesaving equipment is provided or an accident occurs that causes a lifeguard to leave his or her station, the operator shall close the bathing beach immediately and not reopen the facility until it is in compliance.",
   "Notes": ""
 },
 {
   "Code": "64-16-13.4",
   "Section": "Compliance",
   "Description": "Operator maintains records of events",
   "Closure": "No",
   "FullText": "13.4. The operator shall maintain a written record of each event, including the date the 64CSR16 10 event occurred, a description of the event, and the corrective action taken.",
   "Notes": ""
 }
]