[
    {
        "rules": [
            { "name": "64 CSR 9 Sewage System Rules", "path": "sewage/rules/64CSR9 Sewage System Rules.pdf" },
            { "name": "64CSR47 Sewage System Design Standards", "path": "sewage/rules/64CSR47 Sewage System Design Standards.pdf" },
            { "name": "64CSR47 Table B - Minimum Design Loading", "path": "sewage/rules/64CSR47 Table B - Minimum Design Loading.pdf" },
            { "name": "150 CSR 35 Rules Governing Innovative, Alternative Sewer Systems", "path": "sewage/rules/150CSR35 Rules Governing Innovative, Alternative Sewer Systems.pdf" },
            { "name": "SG-55A Home Loan Evaluation Procedures", "path": "sewage/rules/SG-55A Home Loan Evaluation Procedures.pdf" },
            { "name": "SS-180 Standards for Sewage Tank Cleaning Equipment", "path": "sewage/rules/SS-180 Standards for Sewage Tank Cleaning Equipment.pdf" },
            { "name": "WV Code 16-13A-9 Required Water and Sewer Connections", "path": "sewage/rules/WV Code 16-13A-9 Required Water and Sewer Connections.pdf" },
            { "name": "West Virginia Sewage Rules Chart", "path": "sewage/rules/West Virginia Sewage Rules Chart.pdf" }
        ],
        "procedures": [
            { "name": "H-5 Review of Individual Water Well and Sewage System Permit Applications", "path": "sewage/procedures/H-5 Review of Individual Water Well and Sewage System Permit Applications.pdf" },
            { "name": "H-12 Guidelines for Evaluating & Approving Water Supply and STD for Home Loans", "path": "sewage/procedures/H-12 Guidelines for Evaluating & Approving Water Supply and STD for Home Loans.pdf" },
            { "name": "WW-1 Septic Tank Permit Moratorium", "path": "sewage/procedures/WW-1 Septic Tank Permit Moratorium.pdf" },
            { "name": "WW-3 Privy Plans - State Department of Highways", "path": "sewage/procedures/WW-3 Privy Plans - State Department of Highways.pdf" },
            { "name": "WW-4 Sewage Holding Tanks", "path": "sewage/procedures/WW-4 Sewage Holding Tanks.pdf" },
            { "name": "WW-5 Attorney Generals Opinion - Inspection of Small Sewage Treatment Systems", "path": "sewage/procedures/WW-5 Attorney Generals Opinion - Inspection of Small Sewage Treatment Systems.pdf" },
            { "name": "WW-6 Inspection of a Standard Septic Tank System Installation", "path": "sewage/procedures/WW-6 Inspection of a Standard Septic Tank System Installation.pdf" },
            { "name": "WW-7 Application for HAU with Surface Discharge", "path": "sewage/procedures/WW-7 Application for HAU with Surface Discharge.pdf" },
            { "name": "WW-8 Sewage Program - Division of Responsibility May 2011", "path": "sewage/procedures/WW-8 Sewage Program - Division of Responsibility May 2011.pdf" },
            { "name": "WW-9 Garbage Grinders", "path": "sewage/procedures/WW-9 Garbage Grinders.pdf" },
            { "name": "WW-10 Guidelines for Approval of Subdivisions Served by Individual On-Site Sewage Disposal Systems", "path": "sewage/procedures/WW-10 Guidelines for Approval of Subdivisions Served by Individual On-Site Sewage Disposal Systems.pdf" },
            { "name": "WW-11 Reuse of Package Sewage Treatment Plants", "path": "sewage/procedures/WW-11 Reuse of Package Sewage Treatment Plants.pdf" },
            { "name": "WW-12 Permits to Construct Sewer Line Extensions", "path": "sewage/procedures/WW-12 Permits to Construct Sewer Line Extensions.pdf" },
            { "name": "WW-13 Grease Traps", "path": "sewage/procedures/WW-13 Grease Traps.pdf" },
            { "name": "WW-14 Sewage Tank Cleaning Firms", "path": "sewage/procedures/WW-14 Sewage Tank Cleaning Firms.pdf" },
            { "name": "WW-15 Design Criteria for Subsurface Stone Filter for Treatment of Mine Bath House Wastewater", "path": "sewage/procedures/WW-15 Design Criteria for Subsurface Stone Filter for Treatment of Mine Bath House Wastewater.pdf" },
            { "name": "WW-16 Interim Design Criteria for Constructed Wetlands for Sewage Disposal Treatment", "path": "sewage/procedures/WW-16 Interim Design Criteria for Constructed Wetlands for Sewage Disposal Treatment.pdf" },
            { "name": "WW-18 Subdivision Requirements", "path": "sewage/procedures/WW-18 Subdivision Requirements.pdf" },
            { "name": "WW-20 Installer Certification Requirement for HAU Installation", "path": "sewage/procedures/WW-20 Installer Certification Requirement for HAU Installation.pdf" },
            { "name": "WW-21 Requirements for Property Owners Performing Percolation Testing", "path": "sewage/procedures/WW-21 Requirements for Property Owners Performing Percolation Testing.pdf" },
            { "name": "WW-22 Sewage Tank Cleaning", "path": "sewage/procedures/WW-22 Sewage Tank Cleaning.pdf" }
        ],
        "reference": [
            { "name": "Certified Sewage System Installers", "path": "sewage/reference/Certified Sewage System Installers.pdf" },
            { "name": "Approved Septic Tank Manufacturers and Distributors", "path": "sewage/reference/Approved Septic Tank Manufacturers and Distributors.pdf" },
            { "name": "HAU Maintenance Provider List", "path": "sewage/reference/HAU Maintenance Provider List.pdf" },
            { "name": "Media Filters", "path": "sewage/reference/Media Filters.pdf" },
            { "name": "Sand Filter System Illustration", "path": "sewage/reference/Sand Filter System Illustration.pdf" }
        ]
    }
]
