[
 {
   "Code": "64-18-5.1",
   "Section": "Animals",
   "Description": "Housing domestic animals",
   "FollowUpRecommended": "No",
   "FullText": "5.1. A facility falling within the scope of this rule may keep or house domestic animals or pets under conditions conducive to proper sanitation and good health."
 },
 {
   "Code": "64-18-5.2",
   "Section": "Animals",
   "Description": "No live reptiles",
   "FollowUpRecommended": "Yes",
   "FullText": "5.2. No live reptiles shall be kept or housed unless a written plan is provided and implemented for proper sanitary handling and handwashing."
 },
 {
   "Code": "64-18-5.3",
   "Section": "Animals",
   "Description": "No wild, dangerous or ill animals",
   "FollowUpRecommended": "Yes",
   "FullText": "5.3. No wild, dangerous or obviously ill animals are to be kept or fed in an area that would endanger inhabitants or patrons of the facility."
 },
 {
   "Code": "64-18-5.4",
   "Section": "Animals",
   "Description": "Domestic animals not running at large",
   "FollowUpRecommended": "No",
   "FullText": "5.4. No dogs, cats or other domestic animals shall be permitted to run at large."
 },
 {
   "Code": "64-18-5.5",
   "Section": "Animals",
   "Description": "Dogs and cats vaccinated",
   "FollowUpRecommended": "Yes",
   "FullText": "5.5. If the facility has dogs or cats, they must be immunized by a licensed veterinarian for any disease which can be transmitted to humans and for which there is a vaccine."
 },
 {
   "Code": "64-18-5.7",
   "Section": "Animals",
   "Description": "Animal quarters kept clean",
   "FollowUpRecommended": "No",
   "FullText": "5.7. All manure shall be removed and sanitarily disposed of at a frequency necessary to minimize objectionable odors or insect and rodent breeding."
 },
 {
   "Code": "64-18-5.8",
   "Section": "Animals",
   "Description": "Manure removed at necessary frequency",
   "FollowUpRecommended": "Yes",
   "FullText": "5.8. Drainage from stables, pens, coops or other animal quarters shall be disposed of in a manner to prevent contamination of any source of potable water, groundwater, or surface water."
 },
 {
   "Code": "64-18-5.9",
   "Section": "Animals",
   "Description": "Maximum number of animals",
   "FollowUpRecommended": "No",
   "FullText": "5.9. The maximum number of animals in any facility shall be limited to the number that can be adequately housed, fed, and maintained."
 },
 {
   "Code": "64-18-5.10",
   "Section": "Animals",
   "Description": "Live animals excluded from food prep, dining",
   "FollowUpRecommended": "Yes",
   "FullText": "5.10. Live animals, including birds and turtles, shall be excluded from food preparation, storage, and serving areas and in in-use dining areas. This exclusion does not apply to edible fish, crustacea, shellfish, or to fish in aquariums."
 },
 {
   "Code": "64-18-6.1",
   "Section": "Bedding and Sleeping Areas",
   "Description": "All rooms kept clean and sanitary",
   "FollowUpRecommended": "Yes",
   "FullText": "6.1. All rooms or areas used for bedding and sleeping shall be kept clean and sanitary, maintained in a safe condition and in good repair"
 },
 {
   "Code": "64-18-6.2",
   "Section": "Bedding and Sleeping Areas",
   "Description": "Floors easily cleanable, good repair",
   "FollowUpRecommended": "Yes",
   "FullText": "6.2. Floors in sleeping quarters shall be easily cleanable, in good repair and located to prevent ground and surface water entry."
 },
 {
   "Code": "64-18-6.3",
   "Section": "Bedding and Sleeping Areas",
   "Description": "Tents on platforms",
   "FollowUpRecommended": "No",
   "FullText": "6.3. Tents used as permanent sleeping quarters shall be placed on platforms or floors elevated at least one foot above the ground surface. Concrete pads may be used in lieu of platforms on floors."
 },
 {
   "Code": "64-18-6.4",
   "Section": "Bedding and Sleeping Areas",
   "Description": "Single occupancy minimum 70sqft",
   "FollowUpRecommended": "No",
   "FullText": "6.4. Single occupancy sleeping areas shall contain a minimum of seventy (70) square feet of floor space per person."
 },
 {
   "Code": "64-18-6.5",
   "Section": "Bedding and Sleeping Areas",
   "Description": "Multiple occupancy minimum 50sqft each",
   "FollowUpRecommended": "Yes",
   "FullText": "6.5. In multiple occupancy rooms or areas used for a combination of eating, sleeping or cooking, a minimum of fifty (50) square feet of floor space is required per occupant."
 },
 {
   "Code": "64-18-6.6",
   "Section": "Bedding and Sleeping Areas",
   "Description": "Ceiling height minimum 7ft",
   "FollowUpRecommended": "No",
   "FullText": "6.6. Except for tents, no sleeping area shall have a ceiling height of less than seven (7) feet measured from the floor."
 },
 {
   "Code": "64-18-6.7",
   "Section": "Bedding and Sleeping Areas",
   "Description": "Minimum of 3ft between beds",
   "FollowUpRecommended": "No",
   "FullText": "6.7. Sleeping areas shall be designed to provide a minimum of three feet between beds, both laterally and end to end. Beds shall be placed so that the heads of sleepers are at least six feet apart. These spacing requirements for beds do not apply to hotels, motels, or bed and breakfast inns."
 },
 {
   "Code": "64-18-6.8",
   "Section": "Bedding and Sleeping Areas",
   "Description": "Double decker beds",
   "FollowUpRecommended": "Yes",
   "FullText": "6.8. When double-decker beds are used, there shall not be less than twenty-seven (27) inches between the lower mattress and the bottom of the upper bed and not less than twenty-seven (27) inches between the ceiling and the top mattress of the upper bed."
 },
 {
   "Code": "64-18-6.9",
   "Section": "Bedding and Sleeping Areas",
   "Description": "Triple decker beds prohibited",
   "FollowUpRecommended": "No",
   "FullText": "6.9. Triple decker beds are prohibited."
 },
 {
   "Code": "64-18-6.10",
   "Section": "Bedding and Sleeping Areas",
   "Description": "Bed and bedding for each person",
   "FollowUpRecommended": "Yes",
   "FullText": "6.10. A bed and bedding shall be provided for each person."
 },
 {
   "Code": "64-18-6.11",
   "Section": "Bedding and Sleeping Areas",
   "Description": "Mats 2ft apart",
   "FollowUpRecommended": "No",
   "FullText": "6.11. Mats or cots used for short term napping shall be spaced two feet apart on all sides."
 },
 {
   "Code": "64-18-6.12",
   "Section": "Bedding and Sleeping Areas",
   "Description": "Bedding and furniture clean, good repair",
   "FollowUpRecommended": "Yes",
   "FullText": "6.12. All articles of bedding and furniture shall be kept clean and in good repair."
 },
 {
   "Code": "64-18-6.13",
   "Section": "Bedding and Sleeping Areas",
   "Description": "Fabric mattresses have pads or covers",
   "FollowUpRecommended": "No",
   "FullText": "6.13. All fabric mattresses shall be provided with mattress pads or mattress covers"
 },
 {
   "Code": "64-18-6.14",
   "Section": "Bedding and Sleeping Areas",
   "Description": "Linens provided",
   "FollowUpRecommended": "Yes",
   "FullText": "6.14. Linens shall be provided except in those facilities where the user is normally required to bring his or her own linens."
 },
 {
   "Code": "64-18-6.15",
   "Section": "Bedding and Sleeping Areas",
   "Description": "Linens changed weekly",
   "FollowUpRecommended": "Yes",
   "FullText": "6.15. Linen, if provided, shall be changed at least once weekly or more often if needed, and clean linen provided."
 },
 {
   "Code": "64-18-6.16",
   "Section": "Bedding and Sleeping Areas",
   "Description": "Clean linen for each occupant",
   "FollowUpRecommended": "Yes",
   "FullText": "6.16. A clean set of linen shall be provided for each succeeding occupant."
 },
 {
   "Code": "64-18-6.17",
   "Section": "Bedding and Sleeping Areas",
   "Description": "Storage area for clothing, luggage",
   "FollowUpRecommended": "No",
   "FullText": "6.17. Storage area or areas shall be provided for the storage of excess clothing, luggage, or similar articles."
 },
 {
   "Code": "64-18-7.1",
   "Section": "Communicable Disease",
   "Description": "Good hygienic practices",
   "FollowUpRecommended": "No",
   "FullText": "7.1. Good hygienic practices and disease control measures shall be employed to prevent the spread of communicable disease."
 },
 {
   "Code": "64-18-7.2",
   "Section": "Communicable Disease",
   "Description": "Staff with communicable diseases excluded",
   "FollowUpRecommended": "Yes",
   "FullText": "7.2. No staff member while affected with any disease in a communicable form, or while a carrier of a communicable disease, or while affected with boils, infected wounds, sores, or a respiratory infection shall work in any capacity in which there is likelihood of the staff member transmitting disease to other persons."
 },
 {
   "Code": "64-18-7.3.a",
   "Section": "Communicable Disease",
   "Description": "Staff clothing clean",
   "FollowUpRecommended": "No",
   "FullText": "7.3.a. All staff members in care facilities, correctional facilities, schools, and similar facilities where a close staff/client relationship exists shall:<br><br>7.3.a. Wear clean outer garments and maintain a high degree of personal cleanliness;"
 },
 {
   "Code": "64-18-7.3.b",
   "Section": "Communicable Disease",
   "Description": "Staff practice good hygienic practices",
   "FollowUpRecommended": "No",
   "FullText": "7.3.b. All staff members in care facilities, correctional facilities, schools, and similar facilities where a close staff/client relationship exists shall:<br><br>7.3.b. Conform to good hygienic practices while on duty;"
 },
 {
   "Code": "64-18-7.3.c",
   "Section": "Communicable Disease",
   "Description": "Staff wash hands",
   "FollowUpRecommended": "No",
   "FullText": "7.3.c. All staff members in care facilities, correctional facilities, schools, and similar facilities where a close staff/client relationship exists shall:<br><br>7.3.c. Thoroughly wash hands and the exposed portions of arms with soap and warm water before starting work, during work as often as necessary to keep them clean, and after smoking, eating, drinking or using the toilet; and"
 },
 {
   "Code": "64-18-7.3.d",
   "Section": "Communicable Disease",
   "Description": "Staff tobacco use",
   "FollowUpRecommended": "No",
   "FullText": "7.3.d. All staff members in care facilities, correctional facilities, schools, and similar facilities where a close staff/client relationship exists shall:<br><br>7.3.d. Not use tobacco in any form while performing duties. If not prohibited by law, the health officer may designate specific areas for tobacco use when the staff member is not engaged in the performance of his or her duties."
 },
 {
   "Code": "64-18-7.4",
   "Section": "Communicable Disease",
   "Description": "Records of occupants maintained",
   "FollowUpRecommended": "No",
   "FullText": "7.4. The operator shall maintain a register containing a record of all occupants."
 },
 {
   "Code": "64-18-7.4.a",
   "Section": "Communicable Disease",
   "Description": "Records kept for 12 months",
   "FollowUpRecommended": "No",
   "FullText": "7.4.a. The register shall be available to the health officer and shall be preserved for a minimum of twelve (12) months."
 },
 {
   "Code": "64-18-7.4.b",
   "Section": "Communicable Disease",
   "Description": "Records include name, address, dates of stay",
   "FollowUpRecommended": "No",
   "FullText": "7.4.b. The register shall contain the name and address of the occupants and the dates of occupancy."
 },
 {
   "Code": "64-18-8.1",
   "Section": "Garbage and Refuse",
   "Description": "Garbage stored and handled to prevent nuisance",
   "FollowUpRecommended": "Yes",
   "FullText": "8.1. Storage, handling, collection, transportation and disposal of garbage and refuse shall be conducted to prevent odor, insect, rodent and other nuisance conditions."
 },
 {
   "Code": "64-18-8.2",
   "Section": "Garbage and Refuse",
   "Description": "Garbage stored in water tight containers",
   "FollowUpRecommended": "Yes",
   "FullText": "8.2. All garbage and refuse shall be stored in approved water tight, vermin proof, and easily cleanable containers. There shall be a sufficient number of containers to hold all the garbage and refuse that accumulates."
 },
 {
   "Code": "64-18-8.3",
   "Section": "Garbage and Refuse",
   "Description": "Garbage containers kept clean",
   "FollowUpRecommended": "No",
   "FullText": "8.3. Garbage and refuse containers shall be kept clean."
 },
 {
   "Code": "64-18-8.4",
   "Section": "Garbage and Refuse",
   "Description": "Garbage containers covered",
   "FollowUpRecommended": "No",
   "FullText": "8.4. When not in continuous use, garbage and refuse containers shall be covered at all times except those containers used only for nonputrescible and noninfectious wastes."
 },
 {
   "Code": "64-18-8.5",
   "Section": "Garbage and Refuse",
   "Description": "Outside storage areas elevated",
   "FollowUpRecommended": "No",
   "FullText": "8.5. Excluding mass gatherings, garbage and refuse containers, enclosures, dumpsters and compactor systems located outside shall be stored elevated or on metal racks or on a smooth surface of non-absorbent material such as concrete or asphalt that is kept clean and maintained in good repair."
 },
 {
   "Code": "64-18-8.6",
   "Section": "Garbage and Refuse",
   "Description": "Outside storage areas sufficient",
   "FollowUpRecommended": "No",
   "FullText": "8.6. Outside storage areas or enclosures shall be large enough to store the garbage and refuse containers that accumulate and shall be kept clean."
 },
 {
   "Code": "64-18-8.7",
   "Section": "Garbage and Refuse",
   "Description": "Outside stoarge areas easily cleanable",
   "FollowUpRecommended": "Yes",
   "FullText": "8.7. Garbage and refuse storage rooms and outside enclosures, if used, shall be constructed of easily cleanable, non-absorbent, washable materials, shall be kept clean, shall be insect and rodent proof, and shall be large enough to store the garbage and refuse containers that accumulate."
 },
 {
   "Code": "64-18-8.8",
   "Section": "Garbage and Refuse",
   "Description": "Garbage containers readily accessable",
   "FollowUpRecommended": "No",
   "FullText": "8.8. Garbage and refuse containers shall be readily accessible for use and servicing."
 },
 {
   "Code": "64-18-8.9",
   "Section": "Garbage and Refuse",
   "Description": "Frost proof hose bibb for cleaning garbage containers",
   "FollowUpRecommended": "No",
   "FullText": "8.9. If garbage and refuse container cleaning operations are conducted outside, then a frost proof hose bibb and sanitary waste drain shall be provided."
 },
 {
   "Code": "64-18-8.10",
   "Section": "Garbage and Refuse",
   "Description": "Disposal complies with LAW",
   "FollowUpRecommended": "No",
   "FullText": "8.10. Disposal of garbage and refuse shall be in compliance with the applicable laws."
 },
 {
   "Code": "64-18-9.1",
   "Section": "Heating and Ventilation",
   "Description": "Indoor spaces ventilated",
   "FollowUpRecommended": "No",
   "FullText": "9.1 Every indoor space intended for human occupancy shall be ventilated by natural or mechanical means. The minimum amount of outdoor air shall be five (5) cubic feet per minute per person."
 },
 {
   "Code": "64-18-9.2",
   "Section": "Heating and Ventilation",
   "Description": "Rooms have sufficient ventilation",
   "FollowUpRecommended": "Yes",
   "FullText": "9.2 All rooms shall have sufficient ventilation to keep them free of excessive heat, steam, condensation, vapors, obnoxious odors, smoke and fumes."
 },
 {
   "Code": "64-18-9.3",
   "Section": "Heating and Ventilation",
   "Description": "Ventilation systems do not create outside nuisance",
   "FollowUpRecommended": "No",
   "FullText": "9.3. Ventilation systems, when vented to the outside, shall not create a nuisance or public health hazard."
 },
 {
   "Code": "64-18-9.4",
   "Section": "Heating and Ventilation",
   "Description": "Ventilation systems meet State Building Code",
   "FollowUpRecommended": "No",
   "FullText": "9.4 Heating, ventilation and air-conditioning systems shall be in compliance with the requirements of the State Building Code."
 },
 {
   "Code": "64-18-9.5",
   "Section": "Heating and Ventilation",
   "Description": "Air ducts maintained",
   "FollowUpRecommended": "No",
   "FullText": "9.5 Intake and exhaust air ducts shall be located and maintained to prevent the entrance of dust, dirt, and other contaminating materials."
 },
 {
   "Code": "64-18-9.6",
   "Section": "Heating and Ventilation",
   "Description": "Interior temperature 68F - 78F",
   "FollowUpRecommended": "Yes",
   "FullText": "9.6 For mechanical ventilation, indoor design temperature shall be sixty-eight (68) degrees Fahrenheit for heating and seventy-eight (78) degrees Fahrenheit for cooling."
 },
 {
   "Code": "64-18-9.7",
   "Section": "Heating and Ventilation",
   "Description": "Approved heating units in indoor areas",
   "FollowUpRecommended": "No",
   "FullText": "9.7. If operated during the normal heating season, the facility shall be equipped with approved heating units sufficient to provide and maintain a temperature of sixty-eight (68) degrees Fahrenheit or greater in routinely occupied indoor areas unless the facility is intended or designed for low temperature operation."
 },
 {
   "Code": "64-18-9.8",
   "Section": "Heating and Ventilation",
   "Description": "Oil and gas heaters vented to outside",
   "FollowUpRecommended": "No",
   "FullText": "9.8. Oil and gas fired heating devices shall be properly vented to the outside air or otherwise in compliance with the State Building Code."
 },
 {
   "Code": "64-18-9.9",
   "Section": "Heating and Ventilation",
   "Description": "Cloths dryers vented to outside",
   "FollowUpRecommended": "No",
   "FullText": "9.9. Clothes dryer vent systems shall be independent of all other systems and shall convey the products of combustion and moisture to the outside."
 },
 {
   "Code": "64-18-10.1",
   "Section": "Housekeeping and Maintenance",
   "Description": "Premises clean, good repair",
   "FollowUpRecommended": "No",
   "FullText": "10.1 The entire premises and its contents shall be maintained in good repair and in a clean and sanitary condition. Facilities and equipment shall be provided for this purpose."
 },
 {
   "Code": "64-18-10.2",
   "Section": "Housekeeping and Maintenance",
   "Description": "Cleaning frequency sufficient",
   "FollowUpRecommended": "Yes",
   "FullText": "10.2 Cleaning and sanitizing shall be conducted at a frequency necessary to maintain an environment conducive to the general safety, health and comfort of the users."
 },
 {
   "Code": "64-18.10.3",
   "Section": "Housekeeping and Maintenance",
   "Description": "Written housekeeping plan",
   "FollowUpRecommended": "No",
   "FullText": "10.3. A written plan providing for a regular schedule of housekeeping tasks shall be provided and implemented for institutions, schools, care facilities, lodging facilities and organized camps."
 },
 {
   "Code": "64.18-11.1",
   "Section": "Laundry",
   "Description": "Laundry done in separate room",
   "FollowUpRecommended": "No",
   "FullText": "11.1. Laundry, if done on the premises, shall be done in a separate area, room, or rooms designed for that particular purpose."
 },
 {
   "Code": "64-18-11.2",
   "Section": "Laundry",
   "Description": "Soiled laundry stored in covered containers or bags",
   "FollowUpRecommended": "No",
   "FullText": "11.2 Soiled laundry shall be stored in non-absorbent, easily cleanable, covered containers or covered laundry bags intended for laundry storage."
 },
 {
   "Code": "64-18-11.3",
   "Section": "Laundry",
   "Description": "Clean laundry properly stored",
   "FollowUpRecommended": "No",
   "FullText": "11.3 Clean laundry shall be stored in such a manner so as not to become soiled or contaminated."
 },
 {
   "Code": "64-18-11.4",
   "Section": "Laundry",
   "Description": "Laundry stored and transported to prevent disease",
   "FollowUpRecommended": "Yes",
   "FullText": "11.4 Soiled and clean laundry shall be handled, stored, processed and transported in such a manner as to prevent the spread of infection"
 },
 {
   "Code": "64-18-11.5",
   "Section": "Laundry",
   "Description": "Laundry room and equipment clean",
   "FollowUpRecommended": "No",
   "FullText": "11.5 Laundry rooms and equipment shall be maintained in a clean and sanitary condition."
 },
 {
   "Code": "64-18-11.6",
   "Section": "Laundry",
   "Description": "Chemicals properly stored and labeled",
   "FollowUpRecommended": "No",
   "FullText": "11.6 Chemicals and materials used in laundry operations shall be labeled, stored, handled, and used so as to provide maximum cleaning and disinfecting efficiency and prevent injury to the user."
 },
 {
   "Code": "64-18-11.7",
   "Section": "Laundry",
   "Description": "Laundry wash temperature",
   "FollowUpRecommended": "No",
   "FullText": "11.7. All laundered articles shall be washed at a temperature which gives the best performance in relation to the types of soil, level of soil, fabric types and chemicals used. Manufacturers= instructions regarding time, temperature, mechanical agitation and chemical action should be followed in the washing process."
 },
 {
   "Code": "64-18-11.8",
   "Section": "Laundry",
   "Description": "Laundry rinse",
   "FollowUpRecommended": "No",
   "FullText": "11.8. All laundered articles shall be rinsed to remove the cleaning agent."
 },
 {
   "Code": "64-18-11.9",
   "Section": "Laundry",
   "Description": "Laundry sanitized and dried",
   "FollowUpRecommended": "No",
   "FullText": "11.9. After washing and rinsing, laundered articles must be either rinsed in a chemical sanitizing solution and air dried, or mechanically dried."
 },
 {
   "Code": "68-18-11.11",
   "Section": "Laundry",
   "Description": "Laundry facilities required at Labor Camps",
   "FollowUpRecommended": "No",
   "FullText": "11.11. Laundry facilities shall be made available on a regular basis to occupants of labor camps."
 },
 {
   "Code": "64-18-12.1",
   "Section": "Lighting",
   "Description": "Lighting appropriate for activity",
   "FollowUpRecommended": "No",
   "FullText": "12.1. Lighting levels shall be commensurate with the type of activity occurring within the area."
 },
 {
   "Code": "64-18-12.2.a",
   "Section": "Lighting",
   "Description": "20ft candles for critical cleaning areas",
   "FollowUpRecommended": "No",
   "FullText": "12.2. Light sources shall be installed or available to provide the following minimum foot candles of light:<br><br>12.2.a. Twenty (20) foot candles of light shall be provided in critical cleaning areas, including, but not limited to, food preparation, utensil washing, toilet/bathing facilities, and laundry areas. Dining areas shall not be considered critical cleaning areas"
 },
 {
   "Code": "64-18-12.2.b",
   "Section": "Lighting",
   "Description": "10ft candles for normal cleaning areas",
   "FollowUpRecommended": "No",
   "FullText": "12.2. Light sources shall be installed or available to provide the following minimum foot candles of light:<br><br>12.2.b. Ten (10) foot candles of light shall be provided in normal cleaning areas, including, but not limited to, corridors, lobbies, janitor=s closets, storage areas, and lodging quarters"
 },
 {
   "Code": "64-18-12.2.c",
   "Section": "Lighting",
   "Description": "100ft candles for hazardous work areas",
   "FollowUpRecommended": "No",
   "FullText": "12.2. Light sources shall be installed or available to provide the following minimum foot candles of light:<br><br>12.2.c. One hundred (100) foot candles of light shall be provided in hazardous work areas, including, but not limited to, workshops and school laboratories and"
 },
 {
   "Code": "64-18-12.2.d",
   "Section": "Lighting",
   "Description": "40ft candles for reading and activity areas",
   "FollowUpRecommended": "No",
   "FullText": "12.2. Light sources shall be installed or available to provide the following minimum foot candles of light:<br><br>12.2.d.Forty (40) foot candles of light shall be provided in reading and activity areas, including, but not limited to, classrooms, day rooms, play rooms, and meeting rooms."
 },
 {
   "Code": "64-18-12.4",
   "Section": "Lighting",
   "Description": "Light shields",
   "FollowUpRecommended": "No",
   "FullText": "12.4. All light bulbs & fluorescent tubes shall be protected by effective shields or the use of shatterproof bulbs in food preparation areas, showers, gymnasiums, & any other area where safety is a concern ,including classrooms in primary & secondary schools."
 },
 {
   "Code": "64-18-12.5",
   "Section": "Lighting",
   "Description": "Tamper proof light fixtures",
   "FollowUpRecommended": "No",
   "FullText": "12.5. Tamper proof light fixtures shall be provided in areas where a safety hazard may exist to the user or where abuse is likely."
 },
 {
   "Code": "64-18-13.1",
   "Section": "Noise",
   "Description": "Acoustic planning",
   "FollowUpRecommended": "No",
   "FullText": "13.1. All facilities falling under the scope of this rule and constructed after the effective date of this rule shall incorporate reasonable acoustic planning into the facility design and site selection."
 },
 {
   "Code": "64-18-14.1",
   "Section": "Plumbing",
   "Description": "Plumbing complies with BPH rules and State Building Code",
   "FollowUpRecommended": "No",
   "FullText": "14.1. In the absence of applicable bureau for public health rules and design standards, water supply and wastewater systems and fixtures shall comply with the requirements of the State Building Code."
 },
 {
   "Code": "64-18-14.2",
   "Section": "Plumbing",
   "Description": "Plumbing maintained in good repair",
   "FollowUpRecommended": "Yes",
   "FullText": "14.2. Any plumbing or drainage system under the jurisdiction of this rule shall be maintained in good repair and in a sanitary and serviceable condition by the owner or his agent."
 },
 {
   "Code": "64-18-14.3",
   "Section": "Plumbing",
   "Description": "Plumbing fixtures accessable for cleaning",
   "FollowUpRecommended": "No",
   "FullText": "14.3. Plumbing fixtures shall be installed in a manner to afford easy access for cleaning and shall not be located in such a manner as to interfere with the use or the normal operation of doors, windows or other exit openings."
 },
 {
   "Code": "64-18-14.3.a",
   "Section": "Plumbing",
   "Description": "Exposed Utility lines do not obstruct floors, walls, ceilings",
   "FollowUpRecommended": "No",
   "FullText": "14.3.a. Exposed utility service lines and pipes shall be installed in a way that does not obstruct or prevent cleaning of the floors, walls and ceilings."
 },
 {
   "Code": "64-18-14.3.b",
   "Section": "Plumbing",
   "Description": "Utility lines not unnecessarily exposed",
   "FollowUpRecommended": "No",
   "FullText": "14.3.b. Utility service lines and pipes shall not be unnecessarily exposed on floors, walls or ceilings."
 },
 {
   "Code": "64-18-14.4",
   "Section": "Plumbing",
   "Description": "Drainage system air vent vents to outside",
   "FollowUpRecommended": "No",
   "FullText": "14.4. Drainage system vent terminals shall extend to the outer air and be installed to minimize the possibilities of clogging and the return of foul air into the building or into adjoining structures."
 },
 {
   "Code": "64-18-14.5",
   "Section": "Plumbing",
   "Description": "Plumbing fixtures equiped with trap",
   "FollowUpRecommended": "No",
   "FullText": "14.5. Plumbing fixtures directly connected to a drainage system shall be equipped with a water-seal trap."
 },
 {
   "Code": "64-18-14.6",
   "Section": "Plumbing",
   "Description": "Plumbing fixtures made of nonabsorbable materials",
   "FollowUpRecommended": "No",
   "FullText": "14.6. Plumbing fixtures shall have a smooth impervious surface and be constructed of materials especially suited to the use for which the fixture is intended."
 },
 {
   "Code": "64-18-14.7",
   "Section": "Plumbing",
   "Description": "Service sink required",
   "FollowUpRecommended": "No",
   "FullText": "14.7. A service or utility sink is required in all establishments where wet cleaning methods are used."
 },
 {
   "Code": "64-18-14.8",
   "Section": "Plumbing",
   "Description": "No cross connections",
   "FollowUpRecommended": "Yes",
   "FullText": "14.8. Plumbing fixtures shall be installed and maintained so that backsiphonage, backflow, and cross connection potentials are eliminated"
 },
 {
   "Code": "64-18-15.1",
   "Section": "Safety",
   "Description": "Accident free environment",
   "FollowUpRecommended": "Yes",
   "FullText": "15.1. All premises and facilities available to public patronage, employment, confinement, or use shall be designed, maintained and operated to minimize safety hazards and promote an accident-free environment."
 },
 {
   "Code": "64-18-15.2",
   "Section": "Safety",
   "Description": "Protection against electrical hazards",
   "FollowUpRecommended": "No",
   "FullText": "15.2. Adequate protection against all electrical hazards shall be provided."
 },
 {
   "Code": "64-18-15.3",
   "Section": "Safety",
   "Description": "Facility meets State Fire Marshall's rules",
   "FollowUpRecommended": "No",
   "FullText": "15.3. The design, installation and maintenance of the facility shall comply with applicable State Fire Marshal's rules"
 },
 {
   "Code": "64-18-15.4",
   "Section": "Safety",
   "Description": "Trip hazards minimized",
   "FollowUpRecommended": "No",
   "FullText": "15.4. The design, maintenance and arrangement of facilities, including lighting, shall minimize hazards of falls, slipping and tripping"
 },
 {
   "Code": "64-18-15.5",
   "Section": "Safety",
   "Description": "Fenced activity area",
   "FollowUpRecommended": "Yes",
   "FullText": "15.5. A fence or barrier shall be provided around any outdoor playground or activity area located in an area where safety may be a concern and which is used by children or persons not capable of self-preservation."
 },
 {
   "Code": "64-18-15.6",
   "Section": "Safety",
   "Description": "First aid kit provided",
   "FollowUpRecommended": "No",
   "FullText": "15.6. Except for parks, playgrounds, and public restrooms, a first aid kit shall be provided."
 },
 {
   "Code": "64-18-16.1",
   "Section": "Sewage",
   "Description": "Sewage system meets 64 CSR 9",
   "FollowUpRecommended": "Yes",
   "FullText": "16.1. Sewage and liquid waste disposal systems shall comply in full with the bureau for public health rule, Sewer Systems, Sewage Treatment Systems, and Sewage Tank Cleaners, 64 CSR 9."
 },
 {
   "Code": "64-18-16.2",
   "Section": "Sewage",
   "Description": "Sewage system maintained",
   "FollowUpRecommended": "Yes",
   "FullText": "16.2. Sewage and liquid waste disposal systems shall be kept in good repair and properly maintained and operated."
 },
 {
   "Code": "64-18-16.3",
   "Section": "Sewage",
   "Description": "Liquid wastes not disposed of on the ground",
   "FollowUpRecommended": "No",
   "FullText": "16.3. Liquid waste shall not be deposited on the ground in a manner that may create a nuisance."
 },
 {
   "Code": "64-18-16.4",
   "Section": "Sewage",
   "Description": "Privies accessable for cleaning",
   "FollowUpRecommended": "No",
   "FullText": "16.4. Adequate access for approved cleaning vehicles and operations shall be provided to all self-contained privies and portable excreta disposal units."
 },
 {
   "Code": "64-18-17.1",
   "Section": "Size, Space",
   "Description": "Campgrounds: 1200sqft per campsite",
   "FollowUpRecommended": "Yes",
   "FullText": "7.1. In campgrounds, one thousand two hundred (1200) square feet of space shall be provided for each campsite. The average campground density shall not exceed twenty-five (25) campsites per acre."
 },
 {
   "Code": "64-18-17.2",
   "Section": "Size, Space",
   "Description": "Campgrounds: minimum 10ft between campsites",
   "FollowUpRecommended": "No",
   "FullText": "17.2. In campgrounds, camping units, including canopies and similar appurtenances, shall be separated from other camping units on adjacent campsites and all campground buildings and structures by a minimum distance of ten (10) feet."
 },
 {
   "Code": "64-18-17.3",
   "Section": "Size, Space",
   "Description": "Minimum of 10ft between campsites and common areas",
   "FollowUpRecommended": "No",
   "FullText": "17.3. There shall be at least ten (10) feet of space between a camping unit and any campground street, common parking area, or other common use areas."
 },
 {
   "Code": "64-18-17.5",
   "Section": "Size, Space",
   "Description": "Mass Gathering: minimum 20 - 40 sqft per person",
   "FollowUpRecommended": "Yes",
   "FullText": "17.5. For mass gatherings, at least twenty (20) square feet per person shall be provided at the site for day time assemblage, and at least forty (40) square feet per person shall be provided for overnight assemblage, exclusive of parking areas."
 },
 {
   "Code": "64-18-17.6",
   "Section": "Size, Space",
   "Description": "Mass Gathering: adequate parking space",
   "FollowUpRecommended": "No",
   "FullText": "17.6. For mass gatherings, adequate parking space shall be provided for every four (4) persons with the density not to exceed one hundred (100) passenger cars or thirty (30) buses per usable acre."
 },
 {
   "Code": "64-18-17.7",
   "Section": "Size, Space",
   "Description": "Schools: Minimum 28 sqft per student",
   "FollowUpRecommended": "No",
   "FullText": "17.7. School classrooms shall provide a minimum of twenty-eight (28) square feet of space per student."
 },
 {
   "Code": "64-18-18.1",
   "Section": "Storage",
   "Description": "Appropriate storage provided",
   "FollowUpRecommended": "No",
   "FullText": "18.1. Appropriate storage facilities of cleanable construction shall be provided for, but not limited to, the following items: food utensils toys work materials cleaning supplies clothing linens medicines and toxic materials."
 },
 {
   "Code": "64-18-18.2",
   "Section": "Storage",
   "Description": "Storage area maintained clean",
   "FollowUpRecommended": "No",
   "FullText": "18.2. All storage facilities shall be maintained in a neat, orderly, and clean condition."
 },
 {
   "Code": "64-18-18.3",
   "Section": "Storage",
   "Description": "Only necessary items stored",
   "FollowUpRecommended": "No",
   "FullText": "18.3. Only those articles necessary for the operation and maintenance of the facility shall be stored on the premises."
 },
 {
   "Code": "64-18-18.4",
   "Section": "Storage",
   "Description": "Foods protected during storage",
   "FollowUpRecommended": "Yes",
   "FullText": "18.4. All items intended for human consumption or human contact shall be protected from contamination during storage."
 },
 {
   "Code": "64-18-18.5",
   "Section": "Storage",
   "Description": "Toxic items properly labeled and locked",
   "FollowUpRecommended": "Yes",
   "FullText": "18.5. Poisons and other potentially hazardous items shall be properly labeled and stored in locked storage spaces not used for any other purpose. Keys for the storage spaces shall be available only to authorized staff members."
 },
 {
   "Code": "64-18-19.1",
   "Section": "Structure, Materials, Construction and Repair",
   "Description": "Buildings watertight, good repair",
   "FollowUpRecommended": "Yes",
   "FullText": "19.1. Every foundation, roof and exterior wall, door, skylight and window shall be reasonably weather-tight, watertight, and damp-free, and shall be kept in sound condition and good repair"
 },
 {
   "Code": "64-18-19.2",
   "Section": "Structure, Materials, Construction and Repair",
   "Description": "Floors, walls, ceilings, maintained in good repair",
   "FollowUpRecommended": "No",
   "FullText": "19.2. Floors, interior walls and ceilings shall be sound and in good repair."
 },
 {
   "Code": "64-18-19.3",
   "Section": "Structure, Materials, Construction and Repair",
   "Description": "Materials and adhesives, no offensive odors",
   "FollowUpRecommended": "No",
   "FullText": "19.3. Materials, adhesives and coverings used in interior areas shall be limited to a type that minimizes offensive or hazardous emissions to individuals who use or occupy the facility."
 },
 {
   "Code": "64-18-19.4",
   "Section": "Structure, Materials, Construction and Repair",
   "Description": "Exterior wood surfaces painted",
   "FollowUpRecommended": "No",
   "FullText": "19.4. All exterior wood surfaces, other than decay resistant woods, shall be protected from the elements and decay by paint or other protective covering or treatment using nontoxic materials where accessible to children."
 },
 {
   "Code": "64-18-19.5",
   "Section": "Structure, Materials, Construction and Repair",
   "Description": "Interior materials suitable",
   "FollowUpRecommended": "Yes",
   "FullText": "19.5. The interior finish of floors, walls, and ceilings shall be constructed of materials which are suitable for the intended use of the area and the frequency and type of cleaning methods necessary to maintain these finishes in a sanitary condition."
 },
 {
   "Code": "64-18-19.6",
   "Section": "Structure, Materials, Construction and Repair",
   "Description": "Interior surfaces for bathing, food prep are easily cleanable",
   "FollowUpRecommended": "Yes",
   "FullText": "19.6. Floors, walls & ceilings in food prep, toilet/bathing, & similar areas shall be easily cleanable, non-absorbent, & withstand routine wet cleaning methods. Alternate floor coverings permitted in areas for safety reasons interference with floor cleaning"
 },
 {
   "Code": "64-18-19.7",
   "Section": "Structure, Materials, Construction and Repair",
   "Description": "Accessory structures in good repair",
   "FollowUpRecommended": "No",
   "FullText": "19.7. Accessory structures present or provided shall be structurally sound and be maintained in good repair or they shall be removed from the premises"
 },
 {
   "Code": "64-18-19.7.a",
   "Section": "Structure, Materials, Construction and Repair",
   "Description": "Accessory structures weather resistant",
   "FollowUpRecommended": "No",
   "FullText": "19.7.a. The exterior of accessory structures shall be made weather-resistant through the use of decay-resistant materials or the use of paint or other preservatives."
 },
 {
   "Code": "64-18-19.8",
   "Section": "Structure, Materials, Construction and Repair",
   "Description": "Structures support normal loads",
   "FollowUpRecommended": "Yes",
   "FullText": "19.8. Every foundation, roof, floor, exterior and interior wall, ceiling, inside and outside stair, every porch, and every appurtenance thereto, shall be safe to use and capable of supporting the loads that normal use may cause to be placed on them"
 },
 {
   "Code": "64-18-20.1",
   "Section": "Surroundings",
   "Description": "Property free of litter, harborage",
   "FollowUpRecommended": "Yes",
   "FullText": "20.1. All parts of property used in the operation of the facility shall be kept neat, clean, adequately drained, free of litter & vermin harborage, & designed, located, maintained & operated not to endanger the public health, create a nuisance or safety hazard"
 },
 {
   "Code": "64-18-21.1",
   "Section": "Toilet, Handwashing and Bathing Facilities",
   "Description": "Toilet and bathing facilities meet State Building Code",
   "FollowUpRecommended": "Yes",
   "FullText": "21.1. Toilet, handwashing, and bathing facilities shall be provided in the number required in the State Building Code."
 },
 {
   "Code": "64-18-21.1.a",
   "Section": "Toilet, Handwashing and Bathing Facilities",
   "Description": "Labor Camps, Organized Camps: Lavatory and bathing requirements",
   "FollowUpRecommended": "Yes",
   "FullText": "21.1.a. Labor camps and organized camps shall provide one water closet and one lavatory for each ten (10) occupants and one (1) bathtub or shower for each eight (8) occupants, or fraction thereof."
 },
 {
   "Code": "64-18-21.1.b",
   "Section": "Toilet, Handwashing and Bathing Facilities",
   "Description": "Parks and Playgrounds: Toilet and lavatory requirements",
   "FollowUpRecommended": "No",
   "FullText": "21.1.b. Parks and playgrounds shall provide at least one (1) water closet and one lavatory for each sex."
 },
 {
   "Code": "64-18-21.1.c",
   "Section": "Toilet, Handwashing and Bathing Facilities",
   "Description": "Campgrounds: Toilet and lavatory requirements",
   "FollowUpRecommended": "Yes",
   "FullText": "21.1.c. Campground comfort stations, if provided, shall provide for each twenty (20) campsites or fraction thereof one (1) water closet for males, two (2) water closets for females, one (1) lavatory for each sex, and one (1) bathtub or shower for each sex."
 },
 {
   "Code": "64-18-21.1.d",
   "Section": "Toilet, Handwashing and Bathing Facilities",
   "Description": "Mass Gatherings: Toilet and lavatory requirements",
   "FollowUpRecommended": "Yes",
   "FullText": "21.1.d. In mass gatherings, a ratio of one (1) water closet for each one hundred (100) persons shall be provided for the first one thousand (1000) persons, then an additional two (2) water closets per one thousand (1000) thereafter. When water under pressure is provided, one (1) lavatory for every two (2) water closets shall be provided."
 },
 {
   "Code": "64-18-21.2",
   "Section": "Toilet, Handwashing and Bathing Facilities",
   "Description": "Toilet and bathing facilities clean, good repair",
   "FollowUpRecommended": "Yes",
   "FullText": "21.2. Toilet, handwashing and bathing facilities shall be designed, constructed, installed, maintained, and operated in a sanitary manner."
 },
 {
   "Code": "64-18-21.3",
   "Section": "Toilet, Handwashing and Bathing Facilities",
   "Description": "Toilet rooms vented to outside",
   "FollowUpRecommended": "Yes",
   "FullText": "21.3. Rooms containing toilet facilities shall be vented to the outside air. Adequate ventilation or humidity control shall be provided as needed in shower rooms and other high humidity areas."
 },
 {
   "Code": "64-18-21.4",
   "Section": "Toilet, Handwashing and Bathing Facilities",
   "Description": "Toilet tissue provided",
   "FollowUpRecommended": "Yes",
   "FullText": "21.4. An adequate supply of toilet tissue shall be provided at each water closet."
 },
 {
   "Code": "64-18-21.5",
   "Section": "Toilet, Handwashing and Bathing Facilities",
   "Description": "Soap and towels provided",
   "FollowUpRecommended": "Yes",
   "FullText": "21.5. All handwashing facilities shall be provided with hand cleansing soap or detergent, and sanitary towels or a hand drying device providing heated air, adjacent to each hand washing sink."
 },
 {
   "Code": "64-18-21.5.a",
   "Section": "Toilet, Handwashing and Bathing Facilities",
   "Description": "Waste basket for paper towels",
   "FollowUpRecommended": "Yes",
   "FullText": "21.5.a. If disposable towels are used, easily cleanable waste receptacles shall be conveniently located near the handwashing facilities."
 },
 {
   "Code": "64-18-21.6",
   "Section": "Toilet, Handwashing and Bathing Facilities",
   "Description": "Soap, washcloths, and towels provided",
   "FollowUpRecommended": "Yes",
   "FullText": "21.6. If bathing facilities are provided, occupants shall be provided with soap and clean washcloths and towels."
 },
 {
   "Code": "64-18-21.6.a",
   "Section": "Toilet, Handwashing and Bathing Facilities",
   "Description": "Clean washcloths provided minimum once per week",
   "FollowUpRecommended": "Yes",
   "FullText": "21.6.a. Occupants shall be provided with clean washcloths and towels at least once weekly or more often if needed."
 },
 {
   "Code": "64-18-21.6.b",
   "Section": "Toilet, Handwashing and Bathing Facilities",
   "Description": "Washcloths and towels laundered between occupants",
   "FollowUpRecommended": "Yes",
   "FullText": "21.6.b. Washcloths and towels shall be freshly laundered before being furnished to occupants."
 },
 {
   "Code": "64-18-21.7",
   "Section": "Toilet, Handwashing and Bathing Facilities",
   "Description": "Common use towels prohibited",
   "FollowUpRecommended": "No",
   "FullText": "21.7. Common use towels are prohibited."
 },
 {
   "Code": "64-18-21.9",
   "Section": "Toilet, Handwashing and Bathing Facilities",
   "Description": "Handwashing facilitys adjacent to toilets",
   "FollowUpRecommended": "Yes",
   "FullText": "21.9. Handwashing facilities, where provided, shall be in or immediately adjacent to the toilet facilities."
 },
 {
   "Code": "64-18-21.10",
   "Section": "Toilet, Handwashing and Bathing Facilities",
   "Description": "Toilet and bathing facilites meet section 23",
   "FollowUpRecommended": "No",
   "FullText": "21.10. Toilet, handwashing, and bathing facilities shall meet the requirements of section 23 of this rule."
 },
 {
   "Code": "64-18-21.11",
   "Section": "Toilet, Handwashing and Bathing Facilities",
   "Description": "Self-closing faucets run for a minimum of 15 seconds",
   "FollowUpRecommended": "Yes",
   "FullText": "21.11. Any self-closing or metering faucet shall be designed to provide a flow of water for a minimum of fifteen seconds without the need to reactivate the faucet."
 },
 {
   "Code": "64-18-21.12",
   "Section": "Toilet, Handwashing and Bathing Facilities",
   "Description": "Toilet rooms enclosed",
   "FollowUpRecommended": "No",
   "FullText": "21.12. Except for privies, unless properly constructed privacy barriers are provided, toilet rooms shall be completely enclosed and shall have tight-fitting doors which shall be closed except during cleaning or maintenance."
 },
 {
   "Code": "64-18-21.14",
   "Section": "Toilet, Handwashing and Bathing Facilities",
   "Description": "Toilet rooms for women have covered container",
   "FollowUpRecommended": "No",
   "FullText": "21.14. Toilet rooms used by women shall have at least one covered waste receptacle for the disposal of sanitary napkins."
 },
 {
   "Code": "64-18-21.15",
   "Section": "Toilet, Handwashing and Bathing Facilities",
   "Description": "Facilities for children: appropiratly sized sink or step stool",
   "FollowUpRecommended": "Yes",
   "FullText": "21.15. In facilities which are mainly used by children, toilet and handwashing fixtures shall be sized so that they may be used by children without assistance, or step stools that are properly constructed for safety and ease of cleaning shall be provided."
 },
 {
   "Code": "64-18-21.16",
   "Section": "Toilet, Handwashing and Bathing Facilities",
   "Description": "Diaper changing area established",
   "FollowUpRecommended": "Yes",
   "FullText": "21.16. In institutions, schools, and care facilities, a diaper changing area shall be established and used by staff members when they change the diapers and soiled underwear of individuals under their care. The changing area shall not be located in food preparation areas."
 },
 {
   "Code": "64-18-21.16",
   "Section": "Toilet, Handwashing and Bathing Facilities",
   "Description": "Handwashing sink in diaper changing area",
   "FollowUpRecommended": "Yes",
   "FullText": "21.16.a. Handwashing facilities shall be readily accessible to the diaper changing area."
 },
 {
   "Code": "64-18-21.16",
   "Section": "Toilet, Handwashing and Bathing Facilities",
   "Description": "Diaper changing surface nonabsorbable, easily cleanable",
   "FollowUpRecommended": "Yes",
   "FullText": "21.16.b. Diaper changing shall be done on a clean, safe, impervious, nonabsorbent surface which is used for no other purpose."
 },
 {
   "Code": "64-18-21.16",
   "Section": "Toilet, Handwashing and Bathing Facilities",
   "Description": "Perineal area cleaned",
   "FollowUpRecommended": "Yes",
   "FullText": "21.16.c. The individual's perineal (urinary and anal) area shall be cleaned with disposable wipes."
 },
 {
   "Code": "64-18-21.16",
   "Section": "Toilet, Handwashing and Bathing Facilities",
   "Description": "Hand washing frequency",
   "FollowUpRecommended": "Yes",
   "FullText": "21.16.d. After a staff member removes an individual's soiled diaper or soiled underwear, and before the staff member puts a fresh diaper on the individual, the staff member shall wipe his or her own hands with a premoistened towelette or a damp paper towel."
 },
 {
   "Code": "64-18-21.16",
   "Section": "Toilet, Handwashing and Bathing Facilities",
   "Description": "Staff and individuals hands washed",
   "FollowUpRecommended": "Yes",
   "FullText": "21.16.e. Both the individual's and the staff member's hands shall be thoroughly washed after each diaper change. If disposable gloves are used, they shall be discarded immediately and hands washed."
 },
 {
   "Code": "64-18-21.16",
   "Section": "Toilet, Handwashing and Bathing Facilities",
   "Description": "Diaper changing table cleaned after each use",
   "FollowUpRecommended": "Yes",
   "FullText": "21.16.f. Changing tables and surfaces shall be cleaned and disinfected after each use by cleaning to remove visible soil, followed by wiping with an approved disinfectant solution, whether or not disposable, nonabsorbent paper is used. If disposable paper is used, it shall be discarded immediately after each diapering."
 },
 {
   "Code": "64-18-21.16",
   "Section": "Toilet, Handwashing and Bathing Facilities",
   "Description": "Soiled diapers stored in covered containers",
   "FollowUpRecommended": "Yes",
   "FullText": "21.16.g. Soiled cloth diapers and underwear shall be stored in nonabsorbent, easily cleanable, covered containers with plastic liners. The containers shall be emptied, cleaned and disinfected daily."
 },
 {
   "Code": "64-18-21.16",
   "Section": "Toilet, Handwashing and Bathing Facilities",
   "Description": "Soiled diaper container conveniently located, cleanable",
   "FollowUpRecommended": "Yes",
   "FullText": "21.16.h. Soiled disposable diapers will be stored in conveniently located, washable, plastic lined, tightly covered waste containers. Each container shall be labeled and kept clean and free of buildup of soil and odor."
 },
 {
   "Code": "64-18-21.16",
   "Section": "Toilet, Handwashing and Bathing Facilities",
   "Description": "Toilet training chairs",
   "FollowUpRecommended": "Yes",
   "FullText": "21.16.i. Toilet-training chairs, if used, shall be of easily cleanable construction, and after each use, shall be emptied into a toilet, and thoroughly cleaned and sanitized in a utility sink."
 },
 {
   "Code": "64-18-21.16",
   "Section": "Toilet, Handwashing and Bathing Facilities",
   "Description": "Handwashing sinks not used for rinsing diapers",
   "FollowUpRecommended": "Yes",
   "FullText": "21.16.j. Hand washing sinks shall not be used for rinsing soiled diapers or clothing, or for cleaning toilet-training equipment."
 },
 {
   "Code": "64-18-22.1",
   "Section": "Vector Control",
   "Description": "Effective vector control methods used",
   "FollowUpRecommended": "Yes",
   "FullText": "22.1. Effective measures shall be used to minimize the presence of rodents, flies, cockroaches, and other insects and vermin on the premises"
 },
 {
   "Code": "64-18-22.2",
   "Section": "Vector Control",
   "Description": "Premises maintained to prevent harborage",
   "FollowUpRecommended": "No",
   "FullText": "22.2. The premises shall be kept in such condition as to prevent the harborage or feeding of insects, rodents, and other vermin."
 },
 {
   "Code": "64-18-22.3",
   "Section": "Vector Control",
   "Description": "Outer opening protected",
   "FollowUpRecommended": "No",
   "FullText": "22.3. Doors, windows & exterior openings shall be effectively protected against rodents, insects, & other vermin. Areas include, not limited to, food service, toilet, & housing areas. Not applicable primitive & outpost camping or similar recreational activities"
 },
 {
   "Code": "64-18-22.4",
   "Section": "Vector Control",
   "Description": "Screening material minimum 16 mesh",
   "FollowUpRecommended": "No",
   "FullText": "22.4. Screening material shall not be less than sixteen (16) mesh to the inch."
 },
 {
   "Code": "64-18-22.5",
   "Section": "Vector Control",
   "Description": "Only approved pesticides used",
   "FollowUpRecommended": "Yes",
   "FullText": "22.5. Only those pesticides approved by the United States Environmental Protection Agency and the United States Department of Agriculture shall be used."
 },
 {
   "Code": "64-18-22.6",
   "Section": "Vector Control",
   "Description": "Toxic materials use does not create a hazard",
   "FollowUpRecommended": "Yes",
   "FullText": "22.6. Poisonous or toxic materials shall not be used, stored or disposed of in a way that constitutes a hazard to employees or other persons, nor in a way other than in compliance with the manufacturer's specifications."
 },
 {
   "Code": "64-18-23.1",
   "Section": "Water Supply",
   "Description": "Approved water supply",
   "FollowUpRecommended": "Yes",
   "FullText": "23.1. An approved, adequate, easily accessible, potable water supply shall be provided. This provision may be waived by the health officer for remote campgrounds, campsites, mass gatherings, and similar areas where compliance is impractical"
 },
 {
   "Code": "64-18-23.2",
   "Section": "Water Supply",
   "Description": "Water supplies meet 64 CSR 3, 64 CSR 19, 64 CSR 15",
   "FollowUpRecommended": "Yes",
   "FullText": "23.2. Water supplies shall be installed, constructed, maintained, operated & monitored in compliance with division of health rules 64 CSR 3, Public Water Supply, 64 CSR 19, Water Well, & 64 CSR 15, Cross-Connection and Backflow Prevention Regulations"
 },
 {
   "Code": "64-18-23.3",
   "Section": "Water Supply",
   "Description": "Hot water provided",
   "FollowUpRecommended": "Yes",
   "FullText": "23.3. Hot & cold running water shall be supplied by a mixing valve or combination faucet in all areas where food is prepared, all handwashing & bathing facilities, & all other applicable areas."
 },
 {
   "Code": "64-18-23.3.a",
   "Section": "Water Supply",
   "Description": "Hot water minimum 110F",
   "FollowUpRecommended": "Yes",
   "FullText": "23.3.a. Hot water means water heated to a temperature of not less than 110 degrees Fahrenheit"
 },
 {
   "Code": "64-18-23.3.b",
   "Section": "Water Supply",
   "Description": "Steam mixing valves prohibited",
   "FollowUpRecommended": "No",
   "FullText": "23.3.b. Steam-mixing valves are prohibited."
 },
 {
   "Code": "64-18-23.3.c",
   "Section": "Water Supply",
   "Description": "Hot water thermostatically controlled",
   "FollowUpRecommended": "Yes",
   "FullText": "23.3.c. Water temperatures for showers, bathing, or handwashing shall be thermostatically controlled to insure the safety of users."
 },
 {
   "Code": "64-18-23.4",
   "Section": "Water Supply",
   "Description": "Drinking fountains angle jet, easily cleanable",
   "FollowUpRecommended": "Yes",
   "FullText": "23.4. Drinking fountains, if provided: shall be constructed of impervious material shall have an angle-jet nozzle & nonoxidizing mouth guard above overflow rim of the bowl shall be equipped with a pressure regulating valve & maintained in a sanitary manner."
 },
 {
   "Code": "64-18-23.4.a",
   "Section": "Water Supply",
   "Description": "Drinking fountain - lavetory combo prohibited",
   "FollowUpRecommended": "Yes",
   "FullText": "23.4.a. Drinking fountain/lavatory combinations where the water fountain is part of the cold water faucet or is built into the sink's basin are prohibited."
 },
 {
   "Code": "64-18-23.4.b",
   "Section": "Water Supply",
   "Description": "Drinking fountain numbers meet State Building Code",
   "FollowUpRecommended": "No",
   "FullText": "23.4.b. Drinking fountains, if provided, shall be at the ratio required in the State Building Code."
 },
 {
   "Code": "64-18-23.5",
   "Section": "Water Supply",
   "Description": "Common use cups prohibited",
   "FollowUpRecommended": "No",
   "FullText": "23.5. No dipping vessels or cups for common use are permitted."
 },
 {
   "Code": "64-18-23.6",
   "Section": "Water Supply",
   "Description": "Drinking cups dispensed from approved device.",
   "FollowUpRecommended": "Yes",
   "FullText": "23.6. Drinking cups shall be dispensed from an approved sanitary single service dispenser. This requirement does not preclude the use of properly washed and sanitized glasses."
 },
 {
   "Code": "64-18-23.7",
   "Section": "Water Supply",
   "Description": "Drinking water coolers covered, easily cleanable",
   "FollowUpRecommended": "Yes",
   "FullText": "23.7. Where portable drinking water containers or coolers are used, they shall be of easily cleanable construction, securely closed, and constructed and arranged so that water can only be with drawn from the container by a water tap or faucet."
 },
 {
   "Code": "64-18-23.7.b",
   "Section": "Water Supply",
   "Description": "Drinking water coolers cleaned and sanitized",
   "FollowUpRecommended": "Yes",
   "FullText": "23.7.b. All portable water containers shall be kept clean, sanitized between uses, and properly stored and handled."
 },
 {
   "Code": "64-18-23.8",
   "Section": "Water Supply",
   "Description": "Ice from approved source",
   "FollowUpRecommended": "Yes",
   "FullText": "23.8. All ice intended for human consumption or for food storage shall be obtained from a source approved by the health officer and shall be made, stored, transported, and handled under sanitary conditions."
 },
 {
   "Code": "64-18-23.8.a",
   "Section": "Water Supply",
   "Description": "Ice dispensed from automatic dispensers",
   "FollowUpRecommended": "Yes",
   "FullText": "23.8.a. Ice intended for self-service shall be dispensed from automatic self-service ice dispensing equipment."
 },
 {
   "Code": "64-18-23.9.a",
   "Section": "Water Supply",
   "Description": "Transported drinking water chlorinated",
   "FollowUpRecommended": "Yes",
   "FullText": "23.9.a. Transported water shall be from an approved public water supply and maintained with at least one (1.0) mg per liter free chlorine residual or an equivalent strength of another disinfectant as approved by the health officer."
 },
 {
   "Code": "64-18-23.9.b",
   "Section": "Water Supply",
   "Description": "Equipment and procedures for transporting drinking water approved",
   "FollowUpRecommended": "Yes",
   "FullText": "23.9.b. Equipment and procedures used to transport and dispense potable water shall be approved by the health officer."
 }
]